{
	"id": "80be0d5c-8fcc-3e84-b2d2-693941d0bf22",
	"name": "Accounts API",
	"description": "",
	"order": [],
	"folders": [
		{
			"id": "135fd249-f05f-5203-b3c4-1bba687c6b7d",
			"name": "ACCOUNTS API: Access Accounts API",
			"description": "Quick test to ensure users can access asset list authorization.",
			"order": [
				"a8417186-9ced-e16c-0d47-1c6b41ffaadc",
				"44489dfc-58ce-c73e-4679-f1de5d6d667f",
				"16460935-69e3-2a01-695e-ce1b2eb66397"
			],
			"owner": "165807",
			"collectionId": "80be0d5c-8fcc-3e84-b2d2-693941d0bf22"
		},
		{
			"id": "bad29202-12a5-8831-a7d0-e45ba0cc2b92",
			"name": "ACCOUNTS API: Authenticate user",
			"description": "This request authenticates a user and creates a new session.",
			"order": [
				"9bd2eb94-d1f3-7289-7374-af53129a4ac2",
				"e54b634c-353f-f16f-b98d-56ea429a3754",
				"5fd24862-e0aa-fdf8-5d96-adb1fe1b7d44"
			],
			"owner": "165807"
		},
		{
			"id": "8e2ba9a6-1fb9-4f6d-5112-0039e8f03a32",
			"name": "ACCOUNTS API: Searches",
			"description": "",
			"order": [
				"8c20f88e-5daa-33c4-c7db-c2438005da46",
				"74418c24-fb42-16ef-1e54-906ca37607a6",
				"302ad126-45d8-2c42-ca5a-13f28caee83b"
			],
			"owner": "165807",
			"collectionId": "80be0d5c-8fcc-3e84-b2d2-693941d0bf22"
		},
		{
			"id": "9dfe50d5-3b52-52fe-fabe-3761def57d3e",
			"name": "ACCOUNTS API: Users",
			"description": "",
			"order": [
				"89302186-b50d-8ad6-2ee8-fccc2d7e4032",
				"0063ddd0-2964-5604-1232-a24cfa677884",
				"5bef84a6-2ef4-2c4d-afd9-dffb59ee8667",
				"c6b96d77-c8e2-b4a7-fb38-a31c868684e5",
				"1ca4db6e-5b36-70d9-707d-beba4ff20e7b",
				"03708574-a1a8-919b-835b-666c2e7c221d",
				"4d731384-35d1-385b-49f2-cffbffe36cd7",
				"9ff1621c-ddc1-bd98-ee13-0da3f41a1c3c",
				"a633e162-45da-d4ad-c214-32d4d234581a"
			],
			"owner": "165807",
			"collectionId": "80be0d5c-8fcc-3e84-b2d2-693941d0bf22"
		}
	],
	"timestamp": 1460639290172,
	"owner": "165807",
	"remoteLink": "",
	"public": false,
	"published": false,
	"requests": [
		{
			"id": "0063ddd0-2964-5604-1232-a24cfa677884",
			"headers": "lp-security-token: {{sec_Token}}\nAuthorization: Basic YXV0b21hdGVkLXRlc3RpbmcrYXNzZXRAYXZlODEuY29tOmF1dG9tYXRpb25hc3NldA==\nContent-Type: application/json\n",
			"url": "{{stargate}}/account/v1/auth/",
			"preRequestScript": null,
			"pathVariables": {},
			"method": "POST",
			"data": [],
			"dataMode": "raw",
			"tests": "tests[\"User was authenticated.\"] = responseCode.code === 200;\n\ntests[\"Response body contains policies.\"] =  responseBody.has(\"policies\");\ntests[\"Response body contains firstname.\"] =  responseBody.has(\"firstName\");\ntests[\"Response body contains lastname.\"] =  responseBody.has(\"lastName\");\ntests[\"Response body contains verified.\"] =  responseBody.has(\"verified\");\ntests[\"Response body contains meta.\"] =  responseBody.has(\"meta\");\ntests[\"Response body contains enabled.\"] =  responseBody.has(\"enabled\");\ntests[\"Response body contains primaryPaymentMethodUuid.\"] =  responseBody.has(\"primaryPaymentMethodUuid\");\ntests[\"Response body contains fullname.\"] =  responseBody.has(\"fullName\");\ntests[\"Response body contains email.\"] =  responseBody.has(\"email\");\ntests[\"Response body contains accountId.\"] =  responseBody.has(\"accountId\");\n\nvar data = JSON.parse(responseBody);\nif(responseCode.code === 200){\n    postman.setEnvironmentVariable(\"uuid\", data._meta.id); \n}else{\n    tests[\"Error:\" + data.error] = false;\n}",
			"currentHelper": "normal",
			"helperAttributes": {},
			"time": 1468333868694,
			"name": "Accounts Api: Accounts Auth",
			"description": "This request authenticate user on Account API.",
			"collectionId": "80be0d5c-8fcc-3e84-b2d2-693941d0bf22",
			"responses": [],
			"folder": "9dfe50d5-3b52-52fe-fabe-3761def57d3e",
			"rawModeData": "{\n    \"username\": \"{{username}}\",\n    \"password\": \"{{password}}\"\n}"
		},
		{
			"id": "03708574-a1a8-919b-835b-666c2e7c221d",
			"headers": "lp-security-token: {{sec_Token}}\nAuthorization: Basic YXV0b21hdGVkLXRlc3RpbmcrYXNzZXRAYXZlODEuY29tOmF1dG9tYXRpb25hc3NldA==\n//Content-Type: application/json\n",
			"url": "{{stargate}}/account/v1/users/{{uuid}}/cancellations",
			"preRequestScript": null,
			"pathVariables": {},
			"method": "GET",
			"data": [],
			"dataMode": "raw",
			"tests": "tests[\"User cancellations should be retrieved.\"] = responseCode.code === 200;\n\nvar data = JSON.parse(responseBody);\nif(responseCode.code === 200){\n    tests[\"Response body contains _items.\"] =  responseBody.has(\"_items\");\n    tests[\"Response body contains _meta.\"] =  responseBody.has(\"_meta\");\n}else{\n    tests[\"Error:\" + data._status.errors[0].message] = false;\n}",
			"currentHelper": "normal",
			"helperAttributes": {},
			"time": 1468341068752,
			"name": "Accounts Api: Get User Cancellation Information",
			"description": "This request gets the user's cancellation info.",
			"collectionId": "80be0d5c-8fcc-3e84-b2d2-693941d0bf22",
			"responses": [],
			"folder": "9dfe50d5-3b52-52fe-fabe-3761def57d3e",
			"rawModeData": ""
		},
		{
			"id": "16460935-69e3-2a01-695e-ce1b2eb66397",
			"headers": "//Authorization: Basic bWljaGFlbC5zcGVycnkrYXV0b0FQSUBhdmU4MS5jb206cGVhY2hlczQz\nlp-security-token: {{sec_Token}}\n",
			"url": "{{stargate}}/account/v1/users/{{uuid}}/",
			"preRequestScript": "",
			"pathVariables": {},
			"method": "GET",
			"data": [],
			"dataMode": "params",
			"version": 2,
			"tests": "tests[\"User information should be retrieved.\"] = responseCode.code === 200;\n\ntests[\"Response body contains policies.\"] =  responseBody.has(\"policies\");\ntests[\"Response body contains firstname.\"] =  responseBody.has(\"firstName\");\ntests[\"Response body contains lastname.\"] =  responseBody.has(\"lastName\");\ntests[\"Response body contains verified.\"] =  responseBody.has(\"verified\");\ntests[\"Response body contains meta.\"] =  responseBody.has(\"meta\");\ntests[\"Response body contains enabled.\"] =  responseBody.has(\"enabled\");\ntests[\"Response body contains primaryPaymentMethodUuid.\"] =  responseBody.has(\"primaryPaymentMethodUuid\");\ntests[\"Response body contains fullname.\"] =  responseBody.has(\"fullName\");\ntests[\"Response body contains email.\"] =  responseBody.has(\"email\");\ntests[\"Response body contains accountId.\"] =  responseBody.has(\"accountId\");",
			"currentHelper": "normal",
			"helperAttributes": {},
			"time": 1463424203594,
			"name": "Accounts API: Get User Account Information.",
			"description": "This request gets the user's account information using the users uuid.",
			"collectionId": "80be0d5c-8fcc-3e84-b2d2-693941d0bf22",
			"responses": []
		},
		{
			"id": "1ca4db6e-5b36-70d9-707d-beba4ff20e7b",
			"headers": "lp-security-token: {{sec_Token}}\nAuthorization: Basic YXV0b21hdGVkLXRlc3RpbmcrYXNzZXRAYXZlODEuY29tOmF1dG9tYXRpb25hc3NldA==\n//Content-Type: application/json\n",
			"url": "{{stargate}}/account/v1/users/{{uuid}}/upsells",
			"preRequestScript": null,
			"pathVariables": {},
			"method": "GET",
			"data": [],
			"dataMode": "raw",
			"tests": "tests[\"User upsells information should be retrieved.\"] = responseCode.code === 200;\n\nvar data = JSON.parse(responseBody);\nif(responseCode.code === 200){\n    tests[\"Response body contains _items.\"] =  responseBody.has(\"_items\");\n    tests[\"Response body contains _meta.\"] =  responseBody.has(\"_meta\");\n}else{\n    tests[\"Error:\" + data._status.errors[0].message] = false;\n}",
			"currentHelper": "normal",
			"helperAttributes": {},
			"time": 1468341543311,
			"name": "Accounts Api: Get User Upsell Information",
			"description": "This request gets the user's subscription using uuid.",
			"collectionId": "80be0d5c-8fcc-3e84-b2d2-693941d0bf22",
			"responses": [],
			"folder": "9dfe50d5-3b52-52fe-fabe-3761def57d3e",
			"rawModeData": ""
		},
		{
			"id": "302ad126-45d8-2c42-ca5a-13f28caee83b",
			"headers": "//Authorization: Basic bWljaGFlbC5zcGVycnkrYXV0b0FQSUBhdmU4MS5jb206cGVhY2hlczQz\nlp-security-token: {{sec_Token}}\nContent-Type: application/json\n",
			"url": "{{stargate}}/account/v1/user-searches",
			"preRequestScript": "",
			"pathVariables": {},
			"method": "POST",
			"data": [],
			"dataMode": "raw",
			"version": 2,
			"tests": "tests[\"User information should be retrieved.\"] = responseCode.code === 200;\n\nvar data = JSON.parse(responseBody);\nif(responseCode.code === 200){\n    tests[\"Response body contains policies.\"] =  responseBody.has(\"policies\");\n    tests[\"Response body contains firstname.\"] =  responseBody.has(\"firstName\");\n    tests[\"Response body contains lastname.\"] =  responseBody.has(\"lastName\");\n    tests[\"Response body contains verified.\"] =  responseBody.has(\"verified\");\n    tests[\"Response body contains meta.\"] =  responseBody.has(\"meta\");\n    tests[\"Response body contains enabled.\"] =  responseBody.has(\"enabled\");\n    tests[\"Response body contains primaryPaymentMethodUuid.\"] =  responseBody.has(\"primaryPaymentMethodUuid\");\n    tests[\"Response body contains fullname.\"] =  responseBody.has(\"fullName\");\n    tests[\"Response body contains email.\"] =  responseBody.has(\"email\");\n    tests[\"Response body contains accountId.\"] =  responseBody.has(\"accountId\");\n}else{\n    tests[\"Error:\" + data._status.errors[0].message] = false;\n}",
			"currentHelper": "normal",
			"helperAttributes": {},
			"time": 1468351492355,
			"name": "Accounts API: Search User Via Email",
			"description": "Search User Via Email.",
			"collectionId": "80be0d5c-8fcc-3e84-b2d2-693941d0bf22",
			"responses": [],
			"folder": "8e2ba9a6-1fb9-4f6d-5112-0039e8f03a32",
			"rawModeData": "{\n    \"email\": \"{{username}}\"\n}"
		},
		{
			"id": "44489dfc-58ce-c73e-4679-f1de5d6d667f",
			"headers": "Authorization: Basic ZXJueSthdXRvbWF0aW9uK3N0YW5kYXJkQGF2ZTgxLmNvbTpgfFxRKHNqRW14fi9tamd7Ig==\n",
			"url": "{{stargate}}/auth/v1/sessions/",
			"preRequestScript": "",
			"pathVariables": {},
			"method": "POST",
			"data": [],
			"dataMode": "raw",
			"version": 2,
			"tests": "tests[\"User should be authorized.\"] = responseCode.code === 201;\n\nvar data = JSON.parse(responseBody);\n\npostman.setEnvironmentVariable(\"sec_Token\", data.securityToken);\npostman.setEnvironmentVariable(\"uuid\", data.accessId);\n",
			"currentHelper": "basicAuth",
			"helperAttributes": {
				"id": "basic",
				"username": "{{username}}",
				"password": "{{password}}",
				"saveToRequest": true
			},
			"time": 1460659334902,
			"name": "Accounts API: Stargate Auth",
			"description": "Authenticate with Stargate and grab token.",
			"collectionId": "80be0d5c-8fcc-3e84-b2d2-693941d0bf22",
			"responses": [],
			"rawModeData": ""
		},
		{
			"id": "4d731384-35d1-385b-49f2-cffbffe36cd7",
			"headers": "lp-security-token: {{sec_Token}}\nAuthorization: Basic YXV0b21hdGVkLXRlc3RpbmcrYXNzZXRAYXZlODEuY29tOmF1dG9tYXRpb25hc3NldA==\n//Content-Type: application/json\n",
			"url": "{{stargate}}/account/v1/users/{{uuid}}/payment-methods",
			"preRequestScript": null,
			"pathVariables": {},
			"method": "GET",
			"data": [],
			"dataMode": "raw",
			"tests": "tests[\"User payment methods should be retrieved.\"] = responseCode.code === 200;\n\nvar data = JSON.parse(responseBody);\nif(responseCode.code === 200){\n    tests[\"Response body contains _items.\"] =  responseBody.has(\"_items\");\n    tests[\"Response body contains _meta.\"] =  responseBody.has(\"_meta\");\n}else{\n    tests[\"Error:\" + data._status.errors[0].message] = false;\n}",
			"currentHelper": "normal",
			"helperAttributes": {},
			"time": 1468341918928,
			"name": "Accounts Api: Get User Payment Methods",
			"description": "This request gets the user's payment methods.",
			"collectionId": "80be0d5c-8fcc-3e84-b2d2-693941d0bf22",
			"responses": [],
			"folder": "9dfe50d5-3b52-52fe-fabe-3761def57d3e",
			"rawModeData": ""
		},
		{
			"id": "5bef84a6-2ef4-2c4d-afd9-dffb59ee8667",
			"headers": "lp-security-token: {{sec_Token}}\nAuthorization: Basic YXV0b21hdGVkLXRlc3RpbmcrYXNzZXRAYXZlODEuY29tOmF1dG9tYXRpb25hc3NldA==\n//Content-Type: application/json\n",
			"url": "{{stargate}}/account/v1/users/{{uuid}}",
			"preRequestScript": null,
			"pathVariables": {},
			"method": "GET",
			"data": [],
			"dataMode": "raw",
			"tests": "tests[\"User information should be retrieved.\"] = responseCode.code === 200;\n\nvar data = JSON.parse(responseBody);\nif(responseCode.code === 200){\n    tests[\"Response body contains policies.\"] =  responseBody.has(\"policies\");\n    tests[\"Response body contains firstname.\"] =  responseBody.has(\"firstName\");\n    tests[\"Response body contains lastname.\"] =  responseBody.has(\"lastName\");\n    tests[\"Response body contains verified.\"] =  responseBody.has(\"verified\");\n    tests[\"Response body contains meta.\"] =  responseBody.has(\"meta\");\n    tests[\"Response body contains enabled.\"] =  responseBody.has(\"enabled\");\n    tests[\"Response body contains primaryPaymentMethodUuid.\"] =  responseBody.has(\"primaryPaymentMethodUuid\");\n    tests[\"Response body contains fullname.\"] =  responseBody.has(\"fullName\");\n    tests[\"Response body contains email.\"] =  responseBody.has(\"email\");\n    tests[\"Response body contains accountId.\"] =  responseBody.has(\"accountId\");\n}else{\n    tests[\"Error:\" + data._status.errors[0].message] = false;\n}",
			"currentHelper": "normal",
			"helperAttributes": {},
			"time": 1468337166868,
			"name": "Accounts Api: Get User Infromation",
			"description": "This request gets the users information using uuid.",
			"collectionId": "80be0d5c-8fcc-3e84-b2d2-693941d0bf22",
			"responses": [],
			"folder": "9dfe50d5-3b52-52fe-fabe-3761def57d3e",
			"rawModeData": ""
		},
		{
			"id": "5fd24862-e0aa-fdf8-5d96-adb1fe1b7d44",
			"headers": "lp-security-token: {{sec_Token}}\nAuthorization: Basic YXV0b21hdGVkLXRlc3RpbmcrYXNzZXRAYXZlODEuY29tOmF1dG9tYXRpb25hc3NldA==\nContent-Type: application/json\n",
			"url": "{{stargate}}/account/v1/auth/",
			"preRequestScript": null,
			"pathVariables": {},
			"method": "POST",
			"data": [],
			"dataMode": "raw",
			"tests": "tests[\"User was authenticated.\"] = responseCode.code === 200;\n\ntests[\"Response body contains policies.\"] =  responseBody.has(\"policies\");\ntests[\"Response body contains firstname.\"] =  responseBody.has(\"firstName\");\ntests[\"Response body contains lastname.\"] =  responseBody.has(\"lastName\");\ntests[\"Response body contains verified.\"] =  responseBody.has(\"verified\");\ntests[\"Response body contains meta.\"] =  responseBody.has(\"meta\");\ntests[\"Response body contains enabled.\"] =  responseBody.has(\"enabled\");\ntests[\"Response body contains primaryPaymentMethodUuid.\"] =  responseBody.has(\"primaryPaymentMethodUuid\");\ntests[\"Response body contains fullname.\"] =  responseBody.has(\"fullName\");\ntests[\"Response body contains email.\"] =  responseBody.has(\"email\");\ntests[\"Response body contains accountId.\"] =  responseBody.has(\"accountId\");",
			"currentHelper": "basicAuth",
			"helperAttributes": {
				"id": "basic",
				"username": "{{username}}",
				"password": "{{password}}",
				"saveToRequest": true
			},
			"time": 1463072498388,
			"name": "Accounts Api: Authenticate user",
			"description": "",
			"collectionId": "80be0d5c-8fcc-3e84-b2d2-693941d0bf22",
			"responses": [],
			"rawModeData": "{\n    \"username\": \"{{username}}\",\n    \"password\": \"{{password}}\"\n}"
		},
		{
			"id": "74418c24-fb42-16ef-1e54-906ca37607a6",
			"headers": "lp-security-token: {{sec_Token}}\nAuthorization: Basic YXV0b21hdGVkLXRlc3RpbmcrYXNzZXRAYXZlODEuY29tOmF1dG9tYXRpb25hc3NldA==\nContent-Type: application/json\n",
			"url": "{{stargate}}/account/v1/auth/",
			"preRequestScript": null,
			"pathVariables": {},
			"method": "POST",
			"data": [],
			"dataMode": "raw",
			"tests": "tests[\"User was authenticated.\"] = responseCode.code === 200;\n\ntests[\"Response body contains policies.\"] =  responseBody.has(\"policies\");\ntests[\"Response body contains firstname.\"] =  responseBody.has(\"firstName\");\ntests[\"Response body contains lastname.\"] =  responseBody.has(\"lastName\");\ntests[\"Response body contains verified.\"] =  responseBody.has(\"verified\");\ntests[\"Response body contains meta.\"] =  responseBody.has(\"meta\");\ntests[\"Response body contains enabled.\"] =  responseBody.has(\"enabled\");\ntests[\"Response body contains primaryPaymentMethodUuid.\"] =  responseBody.has(\"primaryPaymentMethodUuid\");\ntests[\"Response body contains fullname.\"] =  responseBody.has(\"fullName\");\ntests[\"Response body contains email.\"] =  responseBody.has(\"email\");\ntests[\"Response body contains accountId.\"] =  responseBody.has(\"accountId\");",
			"currentHelper": "normal",
			"helperAttributes": {},
			"time": 1463080189665,
			"name": "Accounts Api: Accounst Auth",
			"description": "This request authenticate user on Account API.",
			"collectionId": "80be0d5c-8fcc-3e84-b2d2-693941d0bf22",
			"responses": [],
			"folder": "8e2ba9a6-1fb9-4f6d-5112-0039e8f03a32",
			"rawModeData": "{\n    \"username\": \"{{username}}\",\n    \"password\": \"{{password}}\"\n}"
		},
		{
			"id": "89302186-b50d-8ad6-2ee8-fccc2d7e4032",
			"headers": "Authorization: Basic ZXJueSthdXRvbWF0aW9uK3N0YW5kYXJkQGF2ZTgxLmNvbTpgfFxRKHNqRW14fi9tamd7Ig==\n",
			"url": "{{stargate}}/auth/v1/sessions/",
			"preRequestScript": "",
			"pathVariables": {},
			"method": "POST",
			"data": [],
			"dataMode": "raw",
			"version": 2,
			"tests": "tests[\"User should be authorized.\"] = responseCode.code === 201;\n\nvar data = JSON.parse(responseBody);\n\npostman.setEnvironmentVariable(\"sec_Token\", data.securityToken);\npostman.setEnvironmentVariable(\"uuid\", data.accessId);\n",
			"currentHelper": "basicAuth",
			"helperAttributes": {
				"id": "basic",
				"username": "{{username}}",
				"password": "{{password}}",
				"saveToRequest": true
			},
			"time": 1460659334902,
			"name": "Accounts API: Stargate Auth",
			"description": "Authenticate with Stargate and grab token.",
			"collectionId": "80be0d5c-8fcc-3e84-b2d2-693941d0bf22",
			"responses": [],
			"folder": "9dfe50d5-3b52-52fe-fabe-3761def57d3e",
			"rawModeData": ""
		},
		{
			"id": "8c20f88e-5daa-33c4-c7db-c2438005da46",
			"headers": "Authorization: Basic ZXJueSthdXRvbWF0aW9uK3N0YW5kYXJkQGF2ZTgxLmNvbTpgfFxRKHNqRW14fi9tamd7Ig==\n",
			"url": "{{stargate}}/auth/v1/sessions/",
			"preRequestScript": "",
			"pathVariables": {},
			"method": "POST",
			"data": [],
			"dataMode": "raw",
			"version": 2,
			"tests": "tests[\"User should be authorized.\"] = responseCode.code === 201;\n\nvar data = JSON.parse(responseBody);\n\npostman.setEnvironmentVariable(\"sec_Token\", data.securityToken);\npostman.setEnvironmentVariable(\"uuid\", data.accessId);\n",
			"currentHelper": "basicAuth",
			"helperAttributes": {
				"id": "basic",
				"username": "erny@ave81.com",
				"password": "aovdavao20",
				"saveToRequest": true
			},
			"time": 1468351453768,
			"name": "Accounts API: Stargate Auth",
			"description": "Authenticate with Stargate and grab token.",
			"collectionId": "80be0d5c-8fcc-3e84-b2d2-693941d0bf22",
			"responses": [],
			"folder": "8e2ba9a6-1fb9-4f6d-5112-0039e8f03a32",
			"rawModeData": ""
		},
		{
			"id": "9bd2eb94-d1f3-7289-7374-af53129a4ac2",
			"headers": "Authorization: Basic ZXJueSthdXRvbWF0aW9uK3N0YW5kYXJkQGF2ZTgxLmNvbTpgfFxRKHNqRW14fi9tamd7Ig==\n",
			"url": "{{stargate}}/auth/v1/sessions/",
			"preRequestScript": "",
			"pathVariables": {},
			"method": "POST",
			"data": [],
			"dataMode": "raw",
			"version": 2,
			"tests": "tests[\"User should be authorized.\"] = responseCode.code === 201;\n\nvar data = JSON.parse(responseBody);\n\npostman.setEnvironmentVariable(\"sec_Token\", data.securityToken);\npostman.setEnvironmentVariable(\"uuid\", data.accessId);\n",
			"currentHelper": "basicAuth",
			"helperAttributes": {
				"id": "basic",
				"username": "{{username}}",
				"password": "{{password}}",
				"saveToRequest": true
			},
			"time": 1460659334902,
			"name": "Accounts API: Stargate Auth",
			"description": "Authenticate with Stargate and grab token.",
			"collectionId": "80be0d5c-8fcc-3e84-b2d2-693941d0bf22",
			"responses": [],
			"folder": "bad29202-12a5-8831-a7d0-e45ba0cc2b92",
			"rawModeData": ""
		},
		{
			"id": "9ff1621c-ddc1-bd98-ee13-0da3f41a1c3c",
			"headers": "//Authorization: Basic bWljaGFlbC5zcGVycnkrYXV0b0FQSUBhdmU4MS5jb206cGVhY2hlczQz\nlp-security-token: {{sec_Token}}\n",
			"url": "{{stargate}}/account/v1/subscription-plans",
			"preRequestScript": "",
			"pathVariables": {},
			"method": "GET",
			"data": [],
			"dataMode": "params",
			"version": 2,
			"tests": "tests[\"User information should be retrieved.\"] = responseCode.code === 200;\n\nvar data = JSON.parse(responseBody);\nif(responseCode.code === 200){\n    tests[\"Response body contains _items.\"] =  responseBody.has(\"_items\");\n    tests[\"Response body contains _meta.\"] =  responseBody.has(\"_meta\");\n}else{\n    tests[\"Error:\" + data._status.errors[0].message] = false;\n}",
			"currentHelper": "normal",
			"helperAttributes": {},
			"time": 1468354483012,
			"name": "Accounts API: Get User Subscription Plan",
			"description": "This request gets the user's subscription plan.",
			"collectionId": "80be0d5c-8fcc-3e84-b2d2-693941d0bf22",
			"responses": [],
			"folder": "9dfe50d5-3b52-52fe-fabe-3761def57d3e"
		},
		{
			"id": "a633e162-45da-d4ad-c214-32d4d234581a",
			"headers": "//Authorization: Basic bWljaGFlbC5zcGVycnkrYXV0b0FQSUBhdmU4MS5jb206cGVhY2hlczQz\nlp-security-token: {{sec_Token}}\n",
			"url": "{{stargate}}/account/v1/payment-methods/",
			"preRequestScript": "",
			"pathVariables": {},
			"method": "GET",
			"data": [],
			"dataMode": "params",
			"version": 2,
			"tests": "tests[\"User payment-methods should be retrieved.\"] = responseCode.code === 200;\n\nvar data = JSON.parse(responseBody);\nif(responseCode.code === 200){\n    tests[\"Response body contains _items.\"] =  responseBody.has(\"_items\");\n    tests[\"Response body contains _meta.\"] =  responseBody.has(\"_meta\");\n}else{\n    tests[\"Error:\" + data._status.errors[0].message] = false;\n}",
			"currentHelper": "normal",
			"helperAttributes": {},
			"time": 1468357661863,
			"name": "Accounts API: Get User Payment Method",
			"description": "This request gets the user's payment method.",
			"collectionId": "80be0d5c-8fcc-3e84-b2d2-693941d0bf22",
			"responses": []
		},
		{
			"id": "a8417186-9ced-e16c-0d47-1c6b41ffaadc",
			"headers": "Authorization: Basic bWljaGFlbC5zcGVycnkrYXV0b0FQSUBhdmU4MS5jb206cGVhY2hlczQz\nlp-security-token: {{sec_Token}}\n",
			"url": "{{stargate}}/account/v1/ping",
			"preRequestScript": "",
			"pathVariables": {},
			"method": "GET",
			"data": [],
			"dataMode": "params",
			"version": 2,
			"tests": "tests[\"OK\"] = responseCode.code === 200;\n\ntests[\"Response body contains version.\"] =  responseBody.has(\"version\");\ntests[\"Response body contains meta.\"] =  responseBody.has(\"meta\");",
			"currentHelper": "normal",
			"helperAttributes": {},
			"time": 1468348737192,
			"name": "Accounts API: Ping API",
			"description": "Ping Accounts API.",
			"collectionId": "80be0d5c-8fcc-3e84-b2d2-693941d0bf22",
			"responses": []
		},
		{
			"id": "c6b96d77-c8e2-b4a7-fb38-a31c868684e5",
			"headers": "lp-security-token: {{sec_Token}}\nAuthorization: Basic YXV0b21hdGVkLXRlc3RpbmcrYXNzZXRAYXZlODEuY29tOmF1dG9tYXRpb25hc3NldA==\n//Content-Type: application/json\n",
			"url": "{{stargate}}/account/v1/users/{{uuid}}/subscriptions",
			"preRequestScript": null,
			"pathVariables": {},
			"method": "GET",
			"data": [],
			"dataMode": "raw",
			"tests": "tests[\"User subscription should be retrieved.\"] = responseCode.code === 200;\n\nvar data = JSON.parse(responseBody);\nif(responseCode.code === 200){\n    tests[\"Response body contains _items.\"] =  responseBody.has(\"_items\");\n    tests[\"Response body contains _meta.\"] =  responseBody.has(\"_meta\");\n}else{\n    tests[\"Error:\" + data._status.errors[0].message] = false;\n}",
			"currentHelper": "normal",
			"helperAttributes": {},
			"time": 1468341563800,
			"name": "Accounts Api: Get User Subcription",
			"description": "This request gets the user's subscription using uuid.",
			"collectionId": "80be0d5c-8fcc-3e84-b2d2-693941d0bf22",
			"responses": [],
			"folder": "9dfe50d5-3b52-52fe-fabe-3761def57d3e",
			"rawModeData": ""
		},
		{
			"id": "e54b634c-353f-f16f-b98d-56ea429a3754",
			"headers": "lp-security-token: {{sec_Token}}\nAuthorization: Basic YXV0b21hdGVkLXRlc3RpbmcrYXNzZXRAYXZlODEuY29tOmF1dG9tYXRpb25hc3NldA==\nContent-Type: application/json\n",
			"url": "{{stargate}}/account/v1/auth/",
			"preRequestScript": null,
			"pathVariables": {},
			"method": "POST",
			"data": [],
			"dataMode": "raw",
			"tests": "tests[\"Invalid user should not be authenticated.\"] = responseCode.code === 401;\n\nvar data = JSON.parse(responseBody);\n\ntests[\"Message should be\"] = data._status.errors[0].message === \"Invalid username or password\"\n\n",
			"currentHelper": "basicAuth",
			"helperAttributes": {
				"id": "basic",
				"username": "{{username}}",
				"password": "{{password}}",
				"saveToRequest": true
			},
			"time": 1466803425572,
			"name": "Accounts Api: Authenticate With Invalid Credentials",
			"description": "This request tries to authenticate account using an ivnalid username and password.",
			"collectionId": "80be0d5c-8fcc-3e84-b2d2-693941d0bf22",
			"responses": [],
			"rawModeData": "{\n    \"username\": \"invalid-email@ave81.com\",\n    \"password\": \"invalidPassword\"\n}"
		}
	]
}