{
	"id": "efa7ba31-bcb6-aae8-d3f2-b43eb0267fc0",
	"name": "Integrations API",
	"description": "",
	"order": [],
	"folders": [
		{
			"id": "a53a8fcc-997e-7c07-45b5-84d37ed40387",
			"name": "INTEGRATIONS API: Credentials",
			"description": "",
			"order": [
				"4df8e84e-4534-5d28-dc48-182cad1f3306",
				"81971ad2-aa74-c33f-15dd-3b83aca59ad6",
				"2eabc24a-83e0-4bc2-106f-a2a4ba35f26a"
			],
			"owner": "165807",
			"collectionId": "efa7ba31-bcb6-aae8-d3f2-b43eb0267fc0"
		},
		{
			"id": "a64fe401-6435-515e-8dbe-cf65235c6252",
			"name": "INTEGRATIONS API: Integrations",
			"description": "",
			"order": [
				"8be11f4a-270c-880e-5191-606d608f400c",
				"59a07772-270b-bf18-f83d-9c2cf3f5c6bc",
				"5ab08a5d-e4a8-f29c-dfab-cc1bf3bf9a70",
				"7443df07-59bb-ffe1-d5d0-6056d0ee38e9",
				"e9c57ea3-7f06-0b22-a64a-117d2e335395",
				"c50c511b-e8e5-e5d8-056f-6cafcaa98963",
				"d3577922-3b3c-d807-180e-949b3bae8239",
				"8701de6d-bad6-29ad-2877-7061d85b19e0",
				"b259987c-6ecf-e802-45fb-8476af116570"
			],
			"owner": "165807",
			"collectionId": "efa7ba31-bcb6-aae8-d3f2-b43eb0267fc0"
		},
		{
			"id": "01aa7591-3ac5-db1c-5f0a-facc9faaff0d",
			"name": "INTEGRATIONS API: Ping",
			"description": "",
			"order": [
				"bd4c3788-9220-9a66-e6c1-6a9021d23801"
			],
			"owner": "165807",
			"collectionId": "efa7ba31-bcb6-aae8-d3f2-b43eb0267fc0"
		},
		{
			"id": "455c49ce-8e42-1b24-00fa-4b76cbdffb36",
			"name": "INTEGRATIONS API: Providers",
			"description": "",
			"order": [
				"acde106a-67ab-5c27-f98c-0eaf4e436832",
				"a609431c-c180-525d-89dd-57792b9b49bc"
			],
			"owner": "165807",
			"collectionId": "efa7ba31-bcb6-aae8-d3f2-b43eb0267fc0"
		}
	],
	"timestamp": 1462453985207,
	"owner": "165807",
	"remoteLink": "",
	"public": false,
	"requests": [
		{
			"id": "2eabc24a-83e0-4bc2-106f-a2a4ba35f26a",
			"headers": "lp-security-token: {{sec_Token}}\n",
			"url": "{{stargate}}/integration/v1/credentials/{{uuid}}",
			"preRequestScript": null,
			"pathVariables": {},
			"method": "GET",
			"data": null,
			"dataMode": "params",
			"version": 2,
			"tests": "tests[\"Credentials should be retrieved.\"] = responseCode.code === 200;\n\nvar data = JSON.parse(responseBody);\nif(responseCode.code === 200){\n    tests[\"Response body contains kind.\"] =  responseBody.has(\"kind\");\n    tests[\"Response body contains meta.\"] =  responseBody.has(\"_meta\");\n    tests[\"Response body contains provider.\"] =  responseBody.has(\"provider\");\n    tests[\"Response body contains credentials.\"] =  responseBody.has(\"credentials\");\n    tests[\"Response body contains _status.\"] =  responseBody.has(\"_status\");\n    tests[\"Response body contains integration.\"] =  responseBody.has(\"integration\");\n}else{\n    tests[\"Error:\" + data._status.errors[0].message] = false;\n}\n\n\n\n",
			"currentHelper": "normal",
			"helperAttributes": {},
			"time": 1464096900523,
			"name": "Integrations API: Get Credentials Using UUID",
			"description": "",
			"collectionId": "efa7ba31-bcb6-aae8-d3f2-b43eb0267fc0",
			"responses": []
		},
		{
			"id": "4df8e84e-4534-5d28-dc48-182cad1f3306",
			"headers": "Authorization: Basic bWljaGFlbC5zcGVycnkrYXBpYXV0b0BhdmU4MS5jb206cGVhY2hlczQz\n",
			"url": "{{stargate}}/auth/v1/sessions/",
			"preRequestScript": "",
			"pathVariables": {},
			"method": "POST",
			"data": [],
			"dataMode": "raw",
			"version": 2,
			"tests": "tests[\"User should be authorized.\"] = responseCode.code === 201;\n\nvar data = JSON.parse(responseBody);\nif(responseCode.code === 201){\n    if(data.securityToken){\n        postman.setEnvironmentVariable(\"sec_Token\", data.securityToken);\n    }else{\n        tests[\"User Security Token not found.\"] = false;\n    }\n}else{\n    tests[\"Error:\" + data._status.errors[0].message] = false;\n}\n",
			"currentHelper": "basicAuth",
			"helperAttributes": {
				"id": "basic",
				"username": "{{username}}",
				"password": "{{password}}",
				"saveToRequest": true
			},
			"time": 1464096560189,
			"name": "Integrations API: Stargate Auth",
			"description": "Authenticate with Stargate and grab token.",
			"collectionId": "efa7ba31-bcb6-aae8-d3f2-b43eb0267fc0",
			"responses": [],
			"rawModeData": ""
		},
		{
			"id": "59a07772-270b-bf18-f83d-9c2cf3f5c6bc",
			"headers": "lp-security-token: {{sec_Token}}\n",
			"url": "{{stargate}}/integration/v1/providers",
			"preRequestScript": null,
			"pathVariables": {},
			"method": "GET",
			"data": null,
			"dataMode": "params",
			"version": 2,
			"tests": "tests[\"Integrations should be retrieved.\"] = responseCode.code === 200;\n\nvar data = JSON.parse(responseBody);\n\nif(responseCode.code === 200){\n    tests[\"Response body contains items.\"] =  responseBody.has(\"_items\");\n    tests[\"Response body contains meta.\"] =  responseBody.has(\"_meta\");\n    var providers = data._items;\n    \n    var ctr = providers.length - 1;\n    var found = false;\n    // find mailchimp\n    for(var i = 0; i <= ctr; i++){\n        if(providers[i].provider.name === \"MailChimp\"){\n            postman.setEnvironmentVariable(\"mailchimp_provider\", providers[i]._meta.id);\n            found = true;\n        }\n    }\n    if(!found){\n        tests[\"MailChimp provider not found. \"] = false;\n    }\n    \n    found = false;\n    // find gtw\n    for(var i = 0; i <= ctr; i++){\n        if(providers[i].provider.name === \"GoToWebinar\"){\n            postman.setEnvironmentVariable(\"gtw_provider\", providers[i]._meta.id);\n            found = true;\n        }\n    }\n    if(!found){\n        tests[\"GoToWebinar provider not found. \"] = false;\n    }\n}else{\n    tests[\"Error:\" + data._status.errors[0].message] = false;\n}",
			"currentHelper": "normal",
			"helperAttributes": {},
			"time": 1464097034455,
			"name": "Integrations API: Get Provider List",
			"description": "",
			"collectionId": "efa7ba31-bcb6-aae8-d3f2-b43eb0267fc0",
			"responses": []
		},
		{
			"id": "5ab08a5d-e4a8-f29c-dfab-cc1bf3bf9a70",
			"headers": "lp-security-token: {{sec_Token}}\n",
			"url": "{{stargate}}/integration/v1/integrations",
			"preRequestScript": null,
			"pathVariables": {},
			"method": "GET",
			"data": null,
			"dataMode": "params",
			"version": 2,
			"tests": "tests[\"Integrations should be retrieved.\"] = responseCode.code === 200;\n\nvar data = JSON.parse(responseBody);\nif(responseCode.code === 200){\n    tests[\"Response body contains items.\"] =  responseBody.has(\"_items\");\n    tests[\"Response body contains meta.\"] =  responseBody.has(\"_meta\");\n}else{\n    tests[\"Error:\" + data._status.errors[0].message] = false;\n}",
			"currentHelper": "normal",
			"helperAttributes": {},
			"time": 1464097057909,
			"name": "Integrations API: Get Integration List",
			"description": "",
			"collectionId": "efa7ba31-bcb6-aae8-d3f2-b43eb0267fc0",
			"responses": []
		},
		{
			"id": "7443df07-59bb-ffe1-d5d0-6056d0ee38e9",
			"headers": "lp-security-token: {{sec_Token}}\nContent-Type: application/json\n",
			"url": "{{stargate}}/integration/v1/integrations",
			"preRequestScript": null,
			"pathVariables": {},
			"method": "POST",
			"data": [],
			"dataMode": "raw",
			"version": 2,
			"tests": "tests[\"Integration should be created.\"] = responseCode.code === 200;\nvar data = JSON.parse(responseBody);\n\nif(responseCode.code === 200){\n    tests[\"Response body contains status.\"] =  responseBody.has(\"status\");\n    tests[\"Response body contains meta.\"] =  responseBody.has(\"_meta\");\n    tests[\"Response body contains settings.\"] =  responseBody.has(\"settings\");\n    tests[\"Response body contains failureReason.\"] =  responseBody.has(\"failureReason\");\n    tests[\"Response body contains collections.\"] =  responseBody.has(\"collections\");\n    tests[\"Response body contains provider.\"] =  responseBody.has(\"provider\");\n    tests[\"Response body contains credentials.\"] =  responseBody.has(\"credentials\");\n    tests[\"Response body contains name.\"] =  responseBody.has(\"name\");\n    \n    postman.setEnvironmentVariable(\"uuid\", data._meta.id);\n}else{\n    tests[\"Error:\" + data._status.errors[0].message] = false;\n}",
			"currentHelper": "normal",
			"helperAttributes": {},
			"time": 1464097348347,
			"name": "Integrations API: Create Integration",
			"description": "",
			"collectionId": "efa7ba31-bcb6-aae8-d3f2-b43eb0267fc0",
			"responses": [],
			"rawModeData": "{\n    \"provider\": \"{{mailchimp_provider}}\",\n    \"name\": \"NewIntegration\",\n    \"credentials\": {\n        \"credentials\": {\n            \"key\": \"{{mailchimp_token}}\"\n        },\n        \"kind\": \"Key\"\n    }\n}"
		},
		{
			"id": "81971ad2-aa74-c33f-15dd-3b83aca59ad6",
			"headers": "lp-security-token: {{sec_Token}}\n",
			"url": "{{stargate}}/integration/v1/credentials",
			"preRequestScript": null,
			"pathVariables": {},
			"method": "GET",
			"data": null,
			"dataMode": "params",
			"version": 2,
			"tests": "tests[\"Credentials should be retrieved.\"] = responseCode.code === 200;\n\nvar data = JSON.parse(responseBody);\n\nif(responseCode.code === 200){\n    tests[\"Response body contains items.\"] =  responseBody.has(\"_items\");\n    tests[\"Response body contains meta.\"] =  responseBody.has(\"_meta\");\n    postman.setEnvironmentVariable(\"uuid\", data._items[0]._meta.id);\n}else{\n    tests[\"Error:\" + data._status.errors[0].message] = false;\n}",
			"currentHelper": "normal",
			"helperAttributes": {},
			"time": 1464096846652,
			"name": "Integrations API: Get Credentials List",
			"description": "",
			"collectionId": "efa7ba31-bcb6-aae8-d3f2-b43eb0267fc0",
			"responses": []
		},
		{
			"id": "8701de6d-bad6-29ad-2877-7061d85b19e0",
			"headers": "lp-security-token: {{sec_Token}}\nContent-Type: application/json\n",
			"url": "{{stargate}}/integration/v1/integrations",
			"preRequestScript": null,
			"pathVariables": {},
			"method": "POST",
			"data": [],
			"dataMode": "raw",
			"version": 2,
			"tests": "tests[\"Integration should be created.\"] = responseCode.code === 200;\n\nvar data = JSON.parse(responseBody);\n\nif(responseCode.code === 200){\n    postman.setEnvironmentVariable(\"uuid\", data._meta.id);\n    tests[\"Response body contains status.\"] =  responseBody.has(\"status\");\n    tests[\"Response body contains meta.\"] =  responseBody.has(\"_meta\");\n    tests[\"Response body contains settings.\"] =  responseBody.has(\"settings\");\n    tests[\"Response body contains failureReason.\"] =  responseBody.has(\"failureReason\");\n    tests[\"Response body contains collections.\"] =  responseBody.has(\"collections\");\n    tests[\"Response body contains provider.\"] =  responseBody.has(\"provider\");\n    tests[\"Response body contains credentials.\"] =  responseBody.has(\"credentials\");\n    tests[\"Response body contains name.\"] =  responseBody.has(\"name\");\n}else{\n    tests[\"Error:\" + data._status.errors[0].message] = false;\n}\n\n",
			"currentHelper": "normal",
			"helperAttributes": {},
			"time": 1464097193305,
			"name": "Integrations API: Create OAuth2 Integration",
			"description": "",
			"collectionId": "efa7ba31-bcb6-aae8-d3f2-b43eb0267fc0",
			"responses": [],
			"rawModeData": "{\n    \"provider\": \"{{gtw_provider}}\",\n    \"name\": \"IntAPI-GTW-Test\",\n    \"credentials\": {\n        \"credentials\": {\n            \"successUri\": \"{{bridge}}login/?app=&logout=true&nextUri=\",\n            \"failureUri\": \"https://api.citrixonline.com\"\n        },\n        \"kind\": \"OAuth2\"\n    }\n}"
		},
		{
			"id": "8be11f4a-270c-880e-5191-606d608f400c",
			"headers": "Authorization: Basic bWljaGFlbC5zcGVycnkrYXBpYXV0b0BhdmU4MS5jb206cGVhY2hlczQz\n",
			"url": "{{stargate}}/auth/v1/sessions/",
			"preRequestScript": "",
			"pathVariables": {},
			"method": "POST",
			"data": [],
			"dataMode": "raw",
			"version": 2,
			"tests": "tests[\"User should be authorized.\"] = responseCode.code === 201;\n\nvar data = JSON.parse(responseBody);\nif(responseCode.code === 201){\n    if(data.securityToken){\n        postman.setEnvironmentVariable(\"sec_Token\", data.securityToken);\n    }else{\n        tests[\"User Security Token not found.\"] = false;\n    }\n}else{\n    tests[\"Error:\" + data._status.errors[0].message] = false;\n}\n",
			"currentHelper": "basicAuth",
			"helperAttributes": {
				"id": "basic",
				"username": "{{username}}",
				"password": "{{password}}",
				"saveToRequest": true
			},
			"time": 1464096910834,
			"name": "Integrations API: Stargate Auth",
			"description": "Authenticate with Stargate and grab token.",
			"collectionId": "efa7ba31-bcb6-aae8-d3f2-b43eb0267fc0",
			"responses": [],
			"rawModeData": ""
		},
		{
			"id": "a609431c-c180-525d-89dd-57792b9b49bc",
			"headers": "lp-security-token: {{sec_Token}}\n",
			"url": "{{stargate}}/integration/v1/providers",
			"preRequestScript": null,
			"pathVariables": {},
			"method": "GET",
			"data": null,
			"dataMode": "params",
			"version": 2,
			"tests": "tests[\"Providers should be retrived.\"] = responseCode.code === 200;\n\nvar data = JSON.parse(responseBody);\nif(responseCode.code === 200){\n    tests[\"Response body contains items.\"] =  responseBody.has(\"_items\");\n    tests[\"Response body contains meta.\"] =  responseBody.has(\"_meta\");\n}else{\n    tests[\"Error:\" + data._status.errors[0].message] = false;\n}",
			"currentHelper": "normal",
			"helperAttributes": {},
			"time": 1464097274471,
			"name": "Integrations API: Get Available Providers",
			"description": "",
			"collectionId": "efa7ba31-bcb6-aae8-d3f2-b43eb0267fc0",
			"responses": []
		},
		{
			"id": "acde106a-67ab-5c27-f98c-0eaf4e436832",
			"headers": "Authorization: Basic bWljaGFlbC5zcGVycnkrYXBpYXV0b0BhdmU4MS5jb206cGVhY2hlczQz\n",
			"url": "{{stargate}}/auth/v1/sessions/",
			"preRequestScript": "",
			"pathVariables": {},
			"method": "POST",
			"data": [],
			"dataMode": "raw",
			"version": 2,
			"tests": "tests[\"User should be authorized.\"] = responseCode.code === 201;\n\nvar data = JSON.parse(responseBody);\nif(responseCode.code === 201){\n    if(data.securityToken){\n        postman.setEnvironmentVariable(\"sec_Token\", data.securityToken);\n    }else{\n        tests[\"User Security Token not found.\"] = false;\n    }\n}else{\n    tests[\"Error:\" + data._status.errors[0].message] = false;\n}\n",
			"currentHelper": "basicAuth",
			"helperAttributes": {
				"id": "basic",
				"username": "{{username}}",
				"password": "{{password}}",
				"saveToRequest": true
			},
			"time": 1464097239912,
			"name": "Integrations API: Stargate Auth",
			"description": "Authenticate with Stargate and grab token.",
			"collectionId": "efa7ba31-bcb6-aae8-d3f2-b43eb0267fc0",
			"responses": [],
			"rawModeData": ""
		},
		{
			"id": "b259987c-6ecf-e802-45fb-8476af116570",
			"headers": "lp-security-token: {{sec_Token}}\nContent-Type: application/json\n",
			"url": "{{stargate}}/integration/v1/integrations/{{uuid}}",
			"preRequestScript": null,
			"pathVariables": {},
			"method": "DELETE",
			"data": [],
			"dataMode": "raw",
			"version": 2,
			"tests": "tests[\"User's integrations should be retrieved.\"] = responseCode.code === 200;",
			"currentHelper": "normal",
			"helperAttributes": {},
			"time": 1462482822318,
			"name": "Integrations API: Delete User Integration",
			"description": "This request deletes the user's integration.",
			"collectionId": "efa7ba31-bcb6-aae8-d3f2-b43eb0267fc0",
			"responses": [],
			"rawModeData": ""
		},
		{
			"id": "bd4c3788-9220-9a66-e6c1-6a9021d23801",
			"headers": "",
			"url": "{{stargate}}/integration/v1/ping",
			"preRequestScript": null,
			"pathVariables": {},
			"method": "GET",
			"data": null,
			"dataMode": "params",
			"version": 2,
			"tests": "tests[\"User should be authorized.\"] = responseCode.code === 200;\n\nif(responseCode.code === 200){\n    tests[\"Body contains version.\"] =  responseBody.has(\"_version\");\n}else{\n    tests[\"Error:\" + data._status.errors[0].message] = false;\n}",
			"currentHelper": "normal",
			"helperAttributes": {},
			"time": 1464097232320,
			"name": "Integrations API: Ping",
			"description": "Ping Integrations API.",
			"collectionId": "efa7ba31-bcb6-aae8-d3f2-b43eb0267fc0",
			"responses": []
		},
		{
			"id": "c50c511b-e8e5-e5d8-056f-6cafcaa98963",
			"headers": "lp-security-token: {{sec_Token}}\nContent-Type: application/json\n",
			"url": "{{stargate}}/integration/v1/integrations/{{uuid}}",
			"preRequestScript": null,
			"pathVariables": {},
			"method": "PATCH",
			"data": [],
			"dataMode": "raw",
			"version": 2,
			"tests": "tests[\"User's integrations should be retrieved.\"] = responseCode.code === 200;\n\nvar data = JSON.parse(responseBody);\nif(responseCode.code === 200){\n    tests[\"Response body contains status.\"] =  responseBody.has(\"status\");\n    tests[\"Response body contains meta.\"] =  responseBody.has(\"_meta\");\n    tests[\"Response body contains settings.\"] =  responseBody.has(\"settings\");\n    tests[\"Response body contains failureReason.\"] =  responseBody.has(\"failureReason\");\n    tests[\"Response body contains collections.\"] =  responseBody.has(\"collections\");\n    tests[\"Response body contains provider.\"] =  responseBody.has(\"provider\");\n    tests[\"Response body contains credentials.\"] =  responseBody.has(\"credentials\");\n    tests[\"Response body contains name.\"] =  responseBody.has(\"name\");\n}else{\n    tests[\"Error:\" + data._status.errors[0].message] = false;\n}",
			"currentHelper": "normal",
			"helperAttributes": {},
			"time": 1464097377579,
			"name": "Integrations API: Update User Integration",
			"description": "This request updates the user's list of collections.",
			"collectionId": "efa7ba31-bcb6-aae8-d3f2-b43eb0267fc0",
			"responses": [],
			"rawModeData": ""
		},
		{
			"id": "d3577922-3b3c-d807-180e-949b3bae8239",
			"headers": "lp-security-token: {{sec_Token}}\nContent-Type: application/json\n",
			"url": "{{stargate}}/integration/v1/integrations/{{uuid}}",
			"preRequestScript": null,
			"pathVariables": {},
			"method": "DELETE",
			"data": [],
			"dataMode": "raw",
			"version": 2,
			"tests": "tests[\"User's integrations should be retrieved.\"] = responseCode.code === 200;",
			"currentHelper": "normal",
			"helperAttributes": {},
			"time": 1462482822318,
			"name": "Integrations API: Delete User Integration",
			"description": "This request deletes the user's integration.",
			"collectionId": "efa7ba31-bcb6-aae8-d3f2-b43eb0267fc0",
			"responses": [],
			"folder": "a64fe401-6435-515e-8dbe-cf65235c6252",
			"rawModeData": ""
		},
		{
			"id": "e9c57ea3-7f06-0b22-a64a-117d2e335395",
			"headers": "lp-security-token: {{sec_Token}}\nContent-Type: application/json\n",
			"url": "{{stargate}}/integration/v1/integrations/{{uuid}}",
			"preRequestScript": null,
			"pathVariables": {},
			"method": "GET",
			"data": [],
			"dataMode": "raw",
			"version": 2,
			"tests": "tests[\"Integration should be retrieved.\"] = responseCode.code === 200;\n\nvar data = JSON.parse(responseBody);\nif(responseCode.code === 200){\n    tests[\"Response body contains status.\"] =  responseBody.has(\"status\");\n    tests[\"Response body contains meta.\"] =  responseBody.has(\"_meta\");\n    tests[\"Response body contains settings.\"] =  responseBody.has(\"settings\");\n    tests[\"Response body contains failureReason.\"] =  responseBody.has(\"failureReason\");\n    tests[\"Response body contains collections.\"] =  responseBody.has(\"collections\");\n    tests[\"Response body contains provider.\"] =  responseBody.has(\"provider\");\n    tests[\"Response body contains credentials.\"] =  responseBody.has(\"credentials\");\n    tests[\"Response body contains name.\"] =  responseBody.has(\"name\");\n}else{\n    tests[\"Error:\" + data._status.errors[0].message] = false;\n}",
			"currentHelper": "normal",
			"helperAttributes": {},
			"time": 1464097374547,
			"name": "Integrations API: View Integration",
			"description": "",
			"collectionId": "efa7ba31-bcb6-aae8-d3f2-b43eb0267fc0",
			"responses": [],
			"rawModeData": ""
		}
	]
}