{
	"id": "c8a5c914-72ae-1c2d-6a86-ed1e24c6ce18",
	"name": "Mail API",
	"description": "",
	"order": [],
	"folders": [
		{
			"id": "2390a835-d67d-372d-b00f-0e97ca3c810e",
			"name": "MAIL API: Emails And Templates",
			"description": "This suite creates and sents out an email by a post request. This includes template creation as well.",
			"order": [
				"9465ba21-eb4f-9399-a25c-86e0e8cc6b06",
				"24b34f1c-a2dc-d1f9-bf0b-e39b978a70f2",
				"dade5cdf-1e2e-814b-5dd9-21ad6fd3ca0b",
				"937cf207-e2f5-221d-980a-7242048744b0",
				"f805d0af-024e-3d23-65c0-c52aa59a88f5",
				"8fab6964-61c5-9dbe-12c6-af24ef17afd4",
				"d26b6d85-1df9-bd26-b5e0-5b21f06fa307"
			],
			"owner": "165807"
		},
		{
			"id": "df014665-656f-6223-bdcb-ef202069409b",
			"name": "MAIL API: Negative Test - Mail",
			"description": "This is a group of request",
			"order": [
				"ed29087f-6e27-ce9a-821e-b1acc9a0cbed",
				"30e426c7-c952-bcbc-8574-acd935f91408",
				"9855340c-5581-7d09-e442-60ecddb2148c",
				"066caa16-670c-249b-f73e-3766878d3c64",
				"83af70b2-231d-77a8-371e-eb3851424e95",
				"e6853bbb-6e64-7b28-eb54-2d0dcfcaf10a"
			],
			"collectionId": "c8a5c914-72ae-1c2d-6a86-ed1e24c6ce18"
		},
		{
			"id": "8a4aeb82-6f7a-ed22-a162-69b9a03d5513",
			"name": "MAIL API: Negative Test - Templates",
			"description": "",
			"order": [
				"f1e28cb0-270e-9d3a-95c6-07ac768c9c2c",
				"592ebf7c-ad93-7777-b0c6-da752e86a5f8",
				"30c1c433-e5d1-55c4-bd9d-d2956bf49e89",
				"68e05785-f925-e0af-a870-1e6d154382a4",
				"f1eb5e76-8a23-1eac-84fe-9011a36ff0c3",
				"33d08c47-c049-9f11-0ca6-6cf53e1a0dd7",
				"c42be579-bc65-bc7a-0cb0-15331658479a"
			],
			"collectionId": "c8a5c914-72ae-1c2d-6a86-ed1e24c6ce18",
			"owner": "165807"
		}
	],
	"timestamp": 1462978140577,
	"owner": "165807",
	"remoteLink": "",
	"public": false,
	"requests": [
		{
			"id": "066caa16-670c-249b-f73e-3766878d3c64",
			"headers": "lp-security-token: {{sec_Token}}\nContent-Type: application/json\n",
			"url": "{{stargate}}/mail/v1/messages",
			"preRequestScript": null,
			"pathVariables": {},
			"method": "POST",
			"data": [],
			"dataMode": "raw",
			"version": 2,
			"tests": "tests[\"sourceService should be valid.\"] = responseCode.code === 400;\n\nvar data = JSON.parse(responseBody);\n\nif(responseCode.code === 400){\ntests[\"`sourceService: must be one of ('splittest', 'integration')` message should be returned.\"] = data._status.errors[0].message === \"sourceService: must be one of ('splittest', 'integration')\";\n}else{\n    tests[\"Error:\" + data._status.errors[0].message] = false;\n}",
			"currentHelper": "normal",
			"helperAttributes": {},
			"time": 1464034563762,
			"name": "Mail API: Invalid or unconfigured source service",
			"description": "This request sets an invalid source service on the request body. Should expect to recieve a response body with an error message.",
			"collectionId": "c8a5c914-72ae-1c2d-6a86-ed1e24c6ce18",
			"responses": [],
			"rawModeData": "{\n    \"sender\": {\n        \"destinationType\": \"to\",\n        \"email\": \"test@ave81.com\",\n        \"name\": \"Mail API Test Automation\"\n    },\n    \"recipients\": [{\n        \"destinationType\": \"to\",\n        \"email\": \"erny+test+mail@ave81.com\",\n        \"name\": \"Recipient Mail Test\"\n    },\n    {\n        \"destinationType\": \"cc\",\n        \"email\": \"erny+test+mail2@ave81.com\",\n        \"name\": \"Recipient Mail Test 2\"\n    }\n    ],\n    \"sourceService\": \"invalid source\",\n    \"html\": \"\",\n    \"text\": \"This is an email body message for test.\",\n    \"replyTo\": {\n        \"destinationType\": \"to\",\n        \"email\": \"no-reply@ave81.com\",\n        \"name\": \"No reply\"\n    },\n    \"subject\": \"Test Mail API Message\"\n}"
		},
		{
			"id": "24b34f1c-a2dc-d1f9-bf0b-e39b978a70f2",
			"headers": "Authorization: Basic bWljaGFlbC5zcGVycnkrYXBpYXV0b0BhdmU4MS5jb206cGVhY2hlczQz\n",
			"url": "{{stargate}}/auth/v1/sessions/",
			"preRequestScript": "",
			"pathVariables": {},
			"method": "POST",
			"data": [],
			"dataMode": "raw",
			"version": 2,
			"tests": "tests[\"User should be authorized.\"] = responseCode.code === 201;\n\nvar data = JSON.parse(responseBody);\nif(responseCode.code === 201){\n    if(data.securityToken){\n        postman.setEnvironmentVariable(\"sec_Token\", data.securityToken);\n    }else{\n        tests[\"User Security Token not found.\"] = false;\n    }\n}else{\n    tests[\"Error:\" + data._status.errors[0].message] = false;\n}\n",
			"currentHelper": "basicAuth",
			"helperAttributes": {
				"id": "basic",
				"username": "{{username}}",
				"password": "{{password}}",
				"saveToRequest": true
			},
			"time": 1464035900120,
			"name": "Mail API: Stargate Auth",
			"description": "Authenticate with Stargate and grab token.",
			"collectionId": "c8a5c914-72ae-1c2d-6a86-ed1e24c6ce18",
			"responses": [],
			"rawModeData": ""
		},
		{
			"id": "30c1c433-e5d1-55c4-bd9d-d2956bf49e89",
			"headers": "lp-security-token: {{sec_Token}}\nContent-Type: application/json\n",
			"url": "{{stargate}}/mail/v1/templates",
			"preRequestScript": null,
			"pathVariables": {},
			"method": "GET",
			"data": [],
			"dataMode": "raw",
			"version": 2,
			"tests": "tests[\"Templates should be retrieved\"] = responseCode.code === 200;\n\nvar data = JSON.parse(responseBody);\n\nif(responseCode.code === 200){\n    tests[\"Response body contains items.\"] =  responseBody.has(\"items\");\n    tests[\"Response body contains meta.\"] =  responseBody.has(\"meta\");\n    if(data._items[0]._meta.id){\n        postman.setEnvironmentVariable(\"template_id\", data._items[0]._meta.id);\n    }else{\n        tests[\"Error: Template ID not found on the request body\"] = false;\n    }\n}else{\n    tests[\"Error:\" + data._status.errors[0].message] = false;\n}",
			"currentHelper": "normal",
			"helperAttributes": {},
			"time": 1464035585692,
			"name": "Mail API: Get Template List",
			"description": "This request gets the list of existing templates.",
			"collectionId": "c8a5c914-72ae-1c2d-6a86-ed1e24c6ce18",
			"responses": [],
			"rawModeData": "{\n    \"sender\": {\n        \"destinationType\": \"to\",\n        \"email\": \"test@ave81.com\",\n        \"name\": \"Mail API Test Automation\"\n    },\n    \"recipients\": [{\n        \"destinationType\": \"to\",\n        \"email\": \"erny+test+mail@ave81.com\",\n        \"name\": \"Recipient Mail Test\"\n    },\n    {\n        \"destinationType\": \"cc\",\n        \"email\": \"erny+test+mail2@ave81.com\",\n        \"name\": \"Recipient Mail Test 2\"\n    }\n    ],\n    \"sourceService\": \"integration\",\n    \"html\": \"\",\n    \"text\": \"This is a message content for a test.\",\n    \"replyTo\": {\n        \"destinationType\": \"to\",\n        \"email\": \"no-reply@ave81.com\",\n        \"name\": \"No reply\"\n    },\n    \"subject\": \"Test Mail API Message\"\n}"
		},
		{
			"id": "30e426c7-c952-bcbc-8574-acd935f91408",
			"headers": "Authorization: Basic bWljaGFlbC5zcGVycnkrYXBpYXV0b0BhdmU4MS5jb206cGVhY2hlczQz\n",
			"url": "{{stargate}}/auth/v1/sessions/",
			"preRequestScript": "",
			"pathVariables": {},
			"method": "POST",
			"data": [],
			"dataMode": "raw",
			"version": 2,
			"tests": "tests[\"User should be authorized.\"] = responseCode.code === 201;\n\nvar data = JSON.parse(responseBody);\nif(responseCode.code === 201){\n    if(data.securityToken){\n        postman.setEnvironmentVariable(\"sec_Token\", data.securityToken);\n    }else{\n        tests[\"User Security Token not found.\"] = false;\n    }\n}else{\n    tests[\"Error:\" + data._status.errors[0].message] = false;\n}\n",
			"currentHelper": "basicAuth",
			"helperAttributes": {
				"id": "basic",
				"username": "{{username}}",
				"password": "{{password}}",
				"saveToRequest": true
			},
			"time": 1464035866986,
			"name": "Mail API: Stargate Auth",
			"description": "Authenticate with Stargate and grab token.",
			"collectionId": "c8a5c914-72ae-1c2d-6a86-ed1e24c6ce18",
			"responses": [],
			"rawModeData": ""
		},
		{
			"id": "33d08c47-c049-9f11-0ca6-6cf53e1a0dd7",
			"headers": "lp-security-token: {{sec_Token}}\n",
			"url": "{{stargate}}/mail/v1/templates",
			"preRequestScript": null,
			"pathVariables": {},
			"method": "POST",
			"data": [],
			"dataMode": "raw",
			"version": 2,
			"tests": "tests[\"Caught Content-Type request error.\"] = responseCode.code === 400;\n\nvar data = JSON.parse(responseBody);\n\nif(responseCode.code === 400){\n    tests[\"`missing Content-Type header` message should be returned.\"] = data._status.errors[0].message === \"missing Content-Type header\";\n}else{\n    tests[\"Error:\" + data._status.errors[0].message] = false;\n}",
			"currentHelper": "normal",
			"helperAttributes": {},
			"time": 1464035279875,
			"name": "Mail API: Missing Content-Type header",
			"description": "This request does not include Content-Type on the header. Should expect to recieve a response body with an error message.",
			"collectionId": "c8a5c914-72ae-1c2d-6a86-ed1e24c6ce18",
			"responses": [],
			"rawModeData": ""
		},
		{
			"id": "592ebf7c-ad93-7777-b0c6-da752e86a5f8",
			"headers": "Authorization: Basic bWljaGFlbC5zcGVycnkrYXBpYXV0b0BhdmU4MS5jb206cGVhY2hlczQz\n",
			"url": "{{stargate}}/auth/v1/sessions/",
			"preRequestScript": "",
			"pathVariables": {},
			"method": "POST",
			"data": [],
			"dataMode": "raw",
			"version": 2,
			"tests": "tests[\"User should be authorized.\"] = responseCode.code === 201;\n\nvar data = JSON.parse(responseBody);\nif(responseCode.code === 201){\n    if(data.securityToken){\n        postman.setEnvironmentVariable(\"sec_Token\", data.securityToken);\n    }else{\n        tests[\"User Security Token not found.\"] = false;\n    }\n}\n",
			"currentHelper": "basicAuth",
			"helperAttributes": {
				"id": "basic",
				"username": "{{username}}",
				"password": "{{password}}",
				"saveToRequest": true
			},
			"time": 1464034918068,
			"name": "Mail API: Stargate Auth",
			"description": "Authenticate with Stargate and grab token.",
			"collectionId": "c8a5c914-72ae-1c2d-6a86-ed1e24c6ce18",
			"responses": [],
			"rawModeData": ""
		},
		{
			"id": "68e05785-f925-e0af-a870-1e6d154382a4",
			"headers": "lp-security-token: {{sec_Token}}\nContent-Type: application/javascript\n",
			"url": "{{stargate}}/mail/v1/templates",
			"preRequestScript": null,
			"pathVariables": {},
			"method": "POST",
			"data": [],
			"dataMode": "raw",
			"version": 2,
			"tests": "tests[\"Caught JSON request error.\"] = responseCode.code === 400;\n\nvar data = JSON.parse(responseBody);\n\nif(responseCode.code === 400){\n    tests[\"`bad content type` message should be returned.\"] = data._status.errors[0].message === \"bad content type\";\n}else{\n    tests[\"Error:\" + data._status.errors[0].message] = false;\n}",
			"currentHelper": "normal",
			"helperAttributes": {},
			"time": 1464035192148,
			"name": "Mail API: Bad content type",
			"description": "This request sets an invalid content type on the header. Should expect to recieve a response body with an error message.",
			"collectionId": "c8a5c914-72ae-1c2d-6a86-ed1e24c6ce18",
			"responses": [],
			"rawModeData": "{\n    \"sender\": {\n        \"destinationType\": \"to\",\n        \"email\": \"test@ave81.com\",\n        \"name\": \"Mail API Test Automation\"\n    },\n    \"recipients\": [{\n        \"destinationType\": \"to\",\n        \"email\": \"erny+test+mail@ave81.com\",\n        \"name\": \"Recipient Mail Test\"\n    },\n    {\n        \"destinationType\": \"cc\",\n        \"email\": \"erny+test+mail2@ave81.com\",\n        \"name\": \"Recipient Mail Test 2\"\n    }\n    ],\n    \"sourceService\": \"invalid source\",\n    \"html\": \"\",\n    \"text\": \"This is an email body message for test.\",\n    \"replyTo\": {\n        \"destinationType\": \"to\",\n        \"email\": \"no-reply@ave81.com\",\n        \"name\": \"No reply\"\n    },\n    \"subject\": \"Test Mail API Message\"\n}"
		},
		{
			"id": "83af70b2-231d-77a8-371e-eb3851424e95",
			"headers": "lp-security-token: {{sec_Token}}\nContent-Type: application/javascript\n",
			"url": "{{stargate}}/mail/v1/messages",
			"preRequestScript": null,
			"pathVariables": {},
			"method": "POST",
			"data": [],
			"dataMode": "raw",
			"version": 2,
			"tests": "tests[\"Caught JSON request error.\"] = responseCode.code === 400;\n\nvar data = JSON.parse(responseBody);\nif(responseCode.code == 400){\n    tests[\"`bad content type` message should be returned.\"] = data._status.errors[0].message === \"bad content type\";\n}else{\n    tests[\"Error:\" + data._status.errors[0].message] = false;\n}",
			"currentHelper": "normal",
			"helperAttributes": {},
			"time": 1464034662467,
			"name": "Mail API: Bad content type",
			"description": "This request sets an invalid content type on the header. Should expect to recieve a response body with an error message.",
			"collectionId": "c8a5c914-72ae-1c2d-6a86-ed1e24c6ce18",
			"responses": [],
			"rawModeData": "{\n    \"sender\": {\n        \"destinationType\": \"to\",\n        \"email\": \"test@ave81.com\",\n        \"name\": \"Mail API Test Automation\"\n    },\n    \"recipients\": [{\n        \"destinationType\": \"to\",\n        \"email\": \"erny+test+mail@ave81.com\",\n        \"name\": \"Recipient Mail Test\"\n    },\n    {\n        \"destinationType\": \"cc\",\n        \"email\": \"erny+test+mail2@ave81.com\",\n        \"name\": \"Recipient Mail Test 2\"\n    }\n    ],\n    \"sourceService\": \"invalid source\",\n    \"html\": \"\",\n    \"text\": \"This is an email body message for test.\",\n    \"replyTo\": {\n        \"destinationType\": \"to\",\n        \"email\": \"no-reply@ave81.com\",\n        \"name\": \"No reply\"\n    },\n    \"subject\": \"Test Mail API Message\"\n}"
		},
		{
			"id": "8fab6964-61c5-9dbe-12c6-af24ef17afd4",
			"headers": "lp-security-token: {{sec_Token}}\nContent-Type: application/json\n",
			"url": "{{stargate}}/mail/v1/templates/{{email_template_id}}/messages",
			"preRequestScript": null,
			"pathVariables": {},
			"method": "POST",
			"data": [],
			"dataMode": "raw",
			"version": 2,
			"tests": "tests[\"Email Accepted\"] = responseCode.code === 202;",
			"currentHelper": "normal",
			"helperAttributes": {},
			"time": 1463435820520,
			"name": "Mail API: Send Email Message with Template",
			"description": "This request sends an email using a template id.",
			"collectionId": "c8a5c914-72ae-1c2d-6a86-ed1e24c6ce18",
			"responses": [],
			"folder": "2390a835-d67d-372d-b00f-0e97ca3c810e",
			"rawModeData": "{\n    \"sender\": {\n        \"destinationType\": \"to\",\n        \"email\": \"test@ave81.com\",\n        \"name\": \"Mail API Test Automation\"\n    },\n    \"recipients\": [{\n        \"destinationType\": \"to\",\n        \"email\": \"erny+test+mail@ave81.com\",\n        \"name\": \"Recipient Mail Test\"\n    },\n    {\n        \"destinationType\": \"cc\",\n        \"email\": \"erny+test+mail2@ave81.com\",\n        \"name\": \"Recipient Mail Test 2\"\n    }\n    ],\n    \"sourceService\": \"integration\",\n    \"replyTo\": {\n        \"destinationType\": \"to\",\n        \"email\": \"no-reply@ave81.com\",\n        \"name\": \"No reply\"\n    },\n    \"subject\": \"Test Mail API Message\"\n}"
		},
		{
			"id": "937cf207-e2f5-221d-980a-7242048744b0",
			"headers": "lp-security-token: {{sec_Token}}\nContent-Type: application/json\n",
			"url": "{{stargate}}/mail/v1/templates",
			"preRequestScript": null,
			"pathVariables": {},
			"method": "GET",
			"data": [],
			"dataMode": "raw",
			"version": 2,
			"tests": "tests[\"Templates should be retrieved\"] = responseCode.code === 200;\n\nvar data = JSON.parse(responseBody);\n\nif(responseCode.code === 200){\n    tests[\"Response body contains items.\"] =  responseBody.has(\"items\");\n    tests[\"Response body contains meta.\"] =  responseBody.has(\"meta\");\n}else{\n    tests[\"Error:\" + data._status.errors[0].message] = false;\n}",
			"currentHelper": "normal",
			"helperAttributes": {},
			"time": 1464040180471,
			"name": "Mail API: Get Template List",
			"description": "This request gets the list of existing templates.",
			"collectionId": "c8a5c914-72ae-1c2d-6a86-ed1e24c6ce18",
			"responses": [],
			"rawModeData": "{\n    \"sender\": {\n        \"destinationType\": \"to\",\n        \"email\": \"test@ave81.com\",\n        \"name\": \"Mail API Test Automation\"\n    },\n    \"recipients\": [{\n        \"destinationType\": \"to\",\n        \"email\": \"erny+test+mail@ave81.com\",\n        \"name\": \"Recipient Mail Test\"\n    },\n    {\n        \"destinationType\": \"cc\",\n        \"email\": \"erny+test+mail2@ave81.com\",\n        \"name\": \"Recipient Mail Test 2\"\n    }\n    ],\n    \"sourceService\": \"integration\",\n    \"html\": \"\",\n    \"text\": \"This is a message content for a test.\",\n    \"replyTo\": {\n        \"destinationType\": \"to\",\n        \"email\": \"no-reply@ave81.com\",\n        \"name\": \"No reply\"\n    },\n    \"subject\": \"Test Mail API Message\"\n}"
		},
		{
			"id": "9465ba21-eb4f-9399-a25c-86e0e8cc6b06",
			"headers": "",
			"url": "{{stargate}}/mail/v1/ping",
			"preRequestScript": null,
			"pathVariables": {},
			"method": "GET",
			"data": null,
			"dataMode": "params",
			"version": 2,
			"tests": "tests[\"Ping OK\"] = responseCode.code === 200;\n\nif(responseCode.code === 200){\n    tests[\"Response body contains version.\"] =  responseBody.has(\"version\");\n    tests[\"Response body contains meta.\"] =  responseBody.has(\"_meta\");\n}else{\n    tests[\"Error:\" + data._status.errors[0].message] = false;\n}",
			"currentHelper": "normal",
			"helperAttributes": {},
			"time": 1464035888720,
			"name": "Mail API: Ping Mail",
			"description": "This request tests a no-op endpoint that can be used to check what the currently-deployed version of the API is.",
			"collectionId": "c8a5c914-72ae-1c2d-6a86-ed1e24c6ce18",
			"responses": []
		},
		{
			"id": "9855340c-5581-7d09-e442-60ecddb2148c",
			"headers": "lp-security-token: {{sec_Token}}\nContent-Type: application/json\n",
			"url": "{{stargate}}/mail/v1/messages",
			"preRequestScript": null,
			"pathVariables": {},
			"method": "POST",
			"data": [],
			"dataMode": "raw",
			"version": 2,
			"tests": "tests[\"Caught JSON request error.\"] = responseCode.code === 400;\n\nvar data = JSON.parse(responseBody);\nif(responseCode.code === 400){\n    tests[\"`failed to parse JSON request` message should be returned.\"] = data._status.errors[0].message === \"failed to parse JSON request\";\n}else{\n    tests[\"Error:\" + data._status.errors[0].message] = false;\n}",
			"currentHelper": "normal",
			"helperAttributes": {},
			"time": 1464034726903,
			"name": "Mail API: Failed to parse JSON request",
			"description": "This request creates and sends a new message.",
			"collectionId": "c8a5c914-72ae-1c2d-6a86-ed1e24c6ce18",
			"responses": [],
			"rawModeData": "{\n    \"sender\": {\n        \"destinationType\": \"to\",\n        \"email\": \"test@ave81.com\",\n        \"name\": \"Mail API Test Automation\"\n    },\n    \"recipients\": [{\n        \"destinationType\": \"to\",\n        \"email\": \"erny+test+mail@ave81.com\",\n        \"name\": \"Recipient Mail Test\"\n    },\n    {\n        \"destinationType\": \"cc\",\n        \"email\": \"erny+test+mail2@ave81.com\",\n        \"name\": \"Recipient Mail Test 2\"\n    }\n    ],\n    \"sourceService\": \"integration\",\n    \"html\": \"\",\n    \"text\": \"This is an email body message for test.\",\n    \"replyTo\": {\n        \"destinationType\": \"to\",\n        \"email\": \"no-reply@ave81.com\",\n        \"name\": \"No reply\"\n    },\n    \"subject\": \"Test Mail API Message\",\n}"
		},
		{
			"id": "c42be579-bc65-bc7a-0cb0-15331658479a",
			"headers": "lp-security-token: {{sec_Token}}\nContent-Type: application/json\n",
			"url": "{{stargate}}/mail/v1/templates/{{template_id}}-i",
			"preRequestScript": null,
			"pathVariables": {},
			"method": "GET",
			"data": [],
			"dataMode": "raw",
			"version": 2,
			"tests": "tests[\"Specified template not found.\"] = responseCode.code === 404;\n\nvar data = JSON.parse(responseBody);\n\nif(responseCode.code === 404){\n    tests[\"`\"+ environment.template_id +\"-i' not found` message should be returned.\"] = data._status.errors[0].message === \"template '\"+ environment.template_id +\"-i' not found\";\n}else{\n    tests[\"Error:\" + data._status.errors[0].message] = false;\n}",
			"currentHelper": "normal",
			"helperAttributes": {},
			"time": 1464035263359,
			"name": "Mail API: Template Not Found",
			"description": "This request creates and sends a new message.",
			"collectionId": "c8a5c914-72ae-1c2d-6a86-ed1e24c6ce18",
			"responses": [],
			"rawModeData": "{\n    \"sourceText\": \"This is an email template.\",\n    \"description\": \"This is a message email template for test.\",\n    \"name\": \"Email Template Test\",\n    \"templateId\": \"{{email_template_id}}\",\n    \"sourceHtml\": \"<!DOCTYPE html PUBLIC \\\"-//W3C//DTD XHTML 1.0 Strict//EN\\\" \\\"http://www.w3.org/TR/xhtml1/DTD/xhtml1-strict.dtd\\\"><html xmlns=\\\"http://www.w3.org/1999/xhtml\\\"><head> <meta http-equiv=\\\"Content-Type\\\" content=\\\"text/html; charset=utf-8\\\"> <meta name=\\\"viewport\\\" content=\\\"width=device-width\\\"></head><body style=\\\"min-width: 100%;-webkit-text-size-adjust: 100%;-ms-text-size-adjust: 100%;margin: 0;padding: 0;background-color: #2CC17B;font-family: &quot;Helvetica&quot;, &quot;Arial&quot;, sans-serif;line-height: 1.3;width: 100% !important;\\\"> <table class=\\\"body\\\" style=\\\"border-spacing: 0;border-collapse: collapse;padding: 0;vertical-align: top;text-align: left;height: 100%;width: 100%;font-family: &quot;Helvetica&quot;, &quot;Arial&quot;, sans-serif;margin: 0;line-height: 1.3;\\\"> <tr style=\\\"padding: 0;vertical-align: top;text-align: left;\\\"> <td class=\\\"center\\\" align=\\\"center\\\" valign=\\\"top\\\" style=\\\"word-break: break-word;-webkit-hyphens: auto;-moz-hyphens: auto;hyphens: auto;padding: 0;vertical-align: top;text-align: center;font-family: &quot;Helvetica&quot;, &quot;Arial&quot;, sans-serif;margin: 0;line-height: 1.3;border-collapse: collapse !important;\\\"> <center> <table class=\\\"row header\\\" style=\\\"border-spacing: 0;border-collapse: collapse;padding: 0px;vertical-align: top;text-align: left;background: #2CC17B;width: 100%;position: relative;\\\"> <tr style=\\\"padding: 0;vertical-align: top;text-align: left;\\\"> <td class=\\\"center\\\" align=\\\"center\\\" style=\\\"word-break: break-word;-webkit-hyphens: auto;-moz-hyphens: auto;hyphens: auto;padding: 0;vertical-align: top;text-align: center;font-family: &quot;Helvetica&quot;, &quot;Arial&quot;, sans-serif;margin: 0;line-height: 1.3;border-collapse: collapse !important;\\\"> <center> <table class=\\\"container\\\" style=\\\"border-spacing: 0;border-collapse: collapse;padding: 0;vertical-align: top;text-align: inherit;width: 580px;margin: 0 auto;\\\"> <tr style=\\\"padding: 0;vertical-align: top;text-align: left;\\\"> <td class=\\\"wrapper last\\\" style=\\\"word-break: break-word;-webkit-hyphens: auto;-moz-hyphens: auto;hyphens: auto;padding: 10px 20px 0px 0px;vertical-align: top;text-align: left;font-family: &quot;Helvetica&quot;, &quot;Arial&quot;, sans-serif;margin: 0;line-height: 1.3;position: relative;border-collapse: collapse !important;\\\"> <table class=\\\"twelve columns\\\" style=\\\"border-spacing: 0;border-collapse: collapse;padding: 0;vertical-align: top;text-align: left;margin: 0 auto;\\\"> <tr style=\\\"padding: 0;vertical-align: top;text-align: left;\\\"><td class=\\\"expander\\\" style=\\\"word-break: break-word;-webkit-hyphens: auto;-moz-hyphens: auto;hyphens: auto;padding: 0 !important;vertical-align: top;text-align: left;font-family: &quot;Helvetica&quot;, &quot;Arial&quot;, sans-serif;margin: 0;line-height: 1.3;visibility: hidden;width: 0px;border-collapse: collapse !important;\\\"></td> </tr> </table> </td> </tr> </table> </center> </td> </tr> </table> <table class=\\\"container\\\" style=\\\"border-spacing: 0;border-collapse: collapse;padding: 0;vertical-align: top;text-align: inherit;width: 580px;margin: 0 auto;\\\"> <tr style=\\\"padding: 0;vertical-align: top;text-align: left;\\\"> <td style=\\\"word-break: break-word;-webkit-hyphens: auto;-moz-hyphens: auto;hyphens: auto;padding: 0;vertical-align: top;text-align: left;font-family: &quot;Helvetica&quot;, &quot;Arial&quot;, sans-serif;margin: 0;line-height: 1.3;border-collapse: collapse !important;\\\"> <table class=\\\"row\\\" style=\\\"border-spacing: 0;border-collapse: collapse;padding: 0px;vertical-align: top;text-align: left;width: 100%;position: relative;display: block;\\\"> <tr style=\\\"padding: 0;vertical-align: top;text-align: left;\\\"> <td class=\\\"wrapper last\\\" style=\\\"word-break: break-word;-webkit-hyphens: auto;-moz-hyphens: auto;hyphens: auto;padding: 10px 20px 0px 0px;vertical-align: top;text-align: left;font-family: &quot;Helvetica&quot;, &quot;Arial&quot;, sans-serif;margin: 0;line-height: 1.3;position: relative;border-collapse: collapse !important;\\\"> <table class=\\\"body-content twelve columns\\\" style=\\\"border-spacing: 0;border-collapse: collapse;padding: 0;vertical-align: top;text-align: left;background-color: white;border-radius: 5px;box-shadow: 0 0 10px #18B56B;margin: 0 auto;\\\"> <tr style=\\\"padding: 0;vertical-align: top;text-align: left;\\\"> <td align=\\\"center\\\" style=\\\"padding: 40px 0 0 0;word-break: break-word;-webkit-hyphens: auto;-moz-hyphens: auto;hyphens: auto;vertical-align: top;text-align: left;font-family: &quot;Helvetica&quot;, &quot;Arial&quot;, sans-serif;margin: 0;line-height: 1.3;border-collapse: collapse !important;\\\"> <center><img src=\\\"https://storage.googleapis.com/lp-assets-test/twoqaUn8oJaoNSH6MUbdLT%2FSwaCEb6gFdLuYTbaiD9jhh\\\" height=\\\"120\\\" style=\\\"outline: none;text-decoration: none;-ms-interpolation-mode: bicubic;width: auto;max-width: 100%;display: block;margin: 0 auto;\\\"> </center> </td> </tr> <tr style=\\\"padding: 0;vertical-align: top;text-align: left;\\\"> <td style=\\\"padding: 20px 60px 0;word-break: break-word;-webkit-hyphens: auto;-moz-hyphens: auto;hyphens: auto;vertical-align: top;text-align: left;font-family: &quot;Helvetica&quot;, &quot;Arial&quot;, sans-serif;margin: 0;line-height: 1.3;border-collapse: collapse !important;\\\"> <h1 class=\\\"center\\\" style=\\\"font-family: &quot;Helvetica&quot;, &quot;Arial&quot;, sans-serif;margin: 0;line-height: 1.3;font-weight: bold;color: #333;font-size: 26px;word-break: normal;text-align: center;\\\">Welcome to Mail API Test, {{firstName}}!</h1> </td> </tr> <tr style=\\\"padding: 0;vertical-align: top;text-align: left;\\\"> <td style=\\\"padding: 20px 60px 0;word-break: break-word;-webkit-hyphens: auto;-moz-hyphens: auto;hyphens: auto;vertical-align: top;text-align: left;font-family: &quot;Helvetica&quot;, &quot;Arial&quot;, sans-serif;margin: 0;line-height: 1.3;border-collapse: collapse !important;\\\"> <p style=\\\"margin: 0;margin-bottom: 10px;font-family: &quot;Helvetica&quot;, &quot;Arial&quot;, sans-serif;line-height: 1.3;\\\">This is an email message template to test mail api.</p> <p style=\\\"margin: 0;margin-bottom: 10px;font-family: &quot;Helvetica&quot;, &quot;Arial&quot;, sans-serif;line-height: 1.3;\\\">We're glad you recieved this email, The Mail API Team</p> <br> </td> </tr> <tr style=\\\"padding: 0;vertical-align: top;text-align: left;\\\"> <td style=\\\"padding: 20px 60px 20px;word-break: break-word;-webkit-hyphens: auto;-moz-hyphens: auto;hyphens: auto;vertical-align: top;text-align: left;font-family: &quot;Helvetica&quot;, &quot;Arial&quot;, sans-serif;margin: 0;line-height: 1.3;border-collapse: collapse !important;\\\"> <span style=\\\"font-size:11px;\\\">If you received this email by mistake, simply delete it.</span> </td> <td class=\\\"expander\\\" style=\\\"word-break: break-word;-webkit-hyphens: auto;-moz-hyphens: auto;hyphens: auto;padding: 0 !important;vertical-align: top;text-align: left;font-family: &quot;Helvetica&quot;, &quot;Arial&quot;, sans-serif;margin: 0;line-height: 1.3;visibility: hidden;width: 0px;border-collapse: collapse !important;\\\"></td> </tr> </table> </td> </tr> </table> </td> </tr> </table> </center> </td> </tr> </table></body></html>\"\n}"
		},
		{
			"id": "d26b6d85-1df9-bd26-b5e0-5b21f06fa307",
			"headers": "lp-security-token: {{sec_Token}}\nContent-Type: application/json\n",
			"url": "{{stargate}}/mail/v1/templates/{{template_id}}",
			"preRequestScript": "var randomInt = Math.floor(Math.random() * 10000);\npostman.setEnvironmentVariable(\"email_template_id\", \"ETID-\" + randomInt);",
			"pathVariables": {},
			"method": "PATCH",
			"data": [],
			"dataMode": "raw",
			"version": 2,
			"tests": "tests[\"Templates should be updated\"] = responseCode.code === 200;\n\nvar data = JSON.parse(responseBody);\nif(responseCode.code === 200){\n    tests[\"Response body contains meta.\"] =  responseBody.has(\"meta\");\n    tests[\"Description should be updated.\"] = data.description === \"This description was updated.\";\n    tests[\"Source text should be updated.\"] = data.sourceText !== null;\n    tests[\"Name should updated.\"] = data.name === \"Email Template Test Updated\";\n    tests[\"Template version should be > 1.\"] = data.version > 1;\n}\n",
			"currentHelper": "normal",
			"helperAttributes": {},
			"time": 1464034305179,
			"name": "Mail API: Update Mail Template",
			"description": "This request updates an email template.",
			"collectionId": "c8a5c914-72ae-1c2d-6a86-ed1e24c6ce18",
			"responses": [],
			"rawModeData": "{\n    \"sourceText\": \"This is an email template and was updated.\",\n    \"description\": \"This description was updated.\",\n    \"name\": \"Email Template Test Updated\",\n    \"sourceHtml\": \"<!DOCTYPE html PUBLIC \\\"-//W3C//DTD XHTML 1.0 Strict//EN\\\" \\\"http://www.w3.org/TR/xhtml1/DTD/xhtml1-strict.dtd\\\"><html xmlns=\\\"http://www.w3.org/1999/xhtml\\\"><head> <meta http-equiv=\\\"Content-Type\\\" content=\\\"text/html; charset=utf-8\\\"> <meta name=\\\"viewport\\\" content=\\\"width=device-width\\\"></head><body style=\\\"min-width: 100%;-webkit-text-size-adjust: 100%;-ms-text-size-adjust: 100%;margin: 0;padding: 0;background-color: #2CC17B;font-family: &quot;Helvetica&quot;, &quot;Arial&quot;, sans-serif;line-height: 1.3;width: 100% !important;\\\"> <table class=\\\"body\\\" style=\\\"border-spacing: 0;border-collapse: collapse;padding: 0;vertical-align: top;text-align: left;height: 100%;width: 100%;font-family: &quot;Helvetica&quot;, &quot;Arial&quot;, sans-serif;margin: 0;line-height: 1.3;\\\"> <tr style=\\\"padding: 0;vertical-align: top;text-align: left;\\\"> <td class=\\\"center\\\" align=\\\"center\\\" valign=\\\"top\\\" style=\\\"word-break: break-word;-webkit-hyphens: auto;-moz-hyphens: auto;hyphens: auto;padding: 0;vertical-align: top;text-align: center;font-family: &quot;Helvetica&quot;, &quot;Arial&quot;, sans-serif;margin: 0;line-height: 1.3;border-collapse: collapse !important;\\\"> <center> <table class=\\\"row header\\\" style=\\\"border-spacing: 0;border-collapse: collapse;padding: 0px;vertical-align: top;text-align: left;background: #2CC17B;width: 100%;position: relative;\\\"> <tr style=\\\"padding: 0;vertical-align: top;text-align: left;\\\"> <td class=\\\"center\\\" align=\\\"center\\\" style=\\\"word-break: break-word;-webkit-hyphens: auto;-moz-hyphens: auto;hyphens: auto;padding: 0;vertical-align: top;text-align: center;font-family: &quot;Helvetica&quot;, &quot;Arial&quot;, sans-serif;margin: 0;line-height: 1.3;border-collapse: collapse !important;\\\"> <center> <table class=\\\"container\\\" style=\\\"border-spacing: 0;border-collapse: collapse;padding: 0;vertical-align: top;text-align: inherit;width: 580px;margin: 0 auto;\\\"> <tr style=\\\"padding: 0;vertical-align: top;text-align: left;\\\"> <td class=\\\"wrapper last\\\" style=\\\"word-break: break-word;-webkit-hyphens: auto;-moz-hyphens: auto;hyphens: auto;padding: 10px 20px 0px 0px;vertical-align: top;text-align: left;font-family: &quot;Helvetica&quot;, &quot;Arial&quot;, sans-serif;margin: 0;line-height: 1.3;position: relative;border-collapse: collapse !important;\\\"> <table class=\\\"twelve columns\\\" style=\\\"border-spacing: 0;border-collapse: collapse;padding: 0;vertical-align: top;text-align: left;margin: 0 auto;\\\"> <tr style=\\\"padding: 0;vertical-align: top;text-align: left;\\\"><td class=\\\"expander\\\" style=\\\"word-break: break-word;-webkit-hyphens: auto;-moz-hyphens: auto;hyphens: auto;padding: 0 !important;vertical-align: top;text-align: left;font-family: &quot;Helvetica&quot;, &quot;Arial&quot;, sans-serif;margin: 0;line-height: 1.3;visibility: hidden;width: 0px;border-collapse: collapse !important;\\\"></td> </tr> </table> </td> </tr> </table> </center> </td> </tr> </table> <table class=\\\"container\\\" style=\\\"border-spacing: 0;border-collapse: collapse;padding: 0;vertical-align: top;text-align: inherit;width: 580px;margin: 0 auto;\\\"> <tr style=\\\"padding: 0;vertical-align: top;text-align: left;\\\"> <td style=\\\"word-break: break-word;-webkit-hyphens: auto;-moz-hyphens: auto;hyphens: auto;padding: 0;vertical-align: top;text-align: left;font-family: &quot;Helvetica&quot;, &quot;Arial&quot;, sans-serif;margin: 0;line-height: 1.3;border-collapse: collapse !important;\\\"> <table class=\\\"row\\\" style=\\\"border-spacing: 0;border-collapse: collapse;padding: 0px;vertical-align: top;text-align: left;width: 100%;position: relative;display: block;\\\"> <tr style=\\\"padding: 0;vertical-align: top;text-align: left;\\\"> <td class=\\\"wrapper last\\\" style=\\\"word-break: break-word;-webkit-hyphens: auto;-moz-hyphens: auto;hyphens: auto;padding: 10px 20px 0px 0px;vertical-align: top;text-align: left;font-family: &quot;Helvetica&quot;, &quot;Arial&quot;, sans-serif;margin: 0;line-height: 1.3;position: relative;border-collapse: collapse !important;\\\"> <table class=\\\"body-content twelve columns\\\" style=\\\"border-spacing: 0;border-collapse: collapse;padding: 0;vertical-align: top;text-align: left;background-color: white;border-radius: 5px;box-shadow: 0 0 10px #18B56B;margin: 0 auto;\\\"> <tr style=\\\"padding: 0;vertical-align: top;text-align: left;\\\"> <td align=\\\"center\\\" style=\\\"padding: 40px 0 0 0;word-break: break-word;-webkit-hyphens: auto;-moz-hyphens: auto;hyphens: auto;vertical-align: top;text-align: left;font-family: &quot;Helvetica&quot;, &quot;Arial&quot;, sans-serif;margin: 0;line-height: 1.3;border-collapse: collapse !important;\\\"> <center><img src=\\\"https://storage.googleapis.com/lp-assets-test/twoqaUn8oJaoNSH6MUbdLT%2FSwaCEb6gFdLuYTbaiD9jhh\\\" height=\\\"120\\\" style=\\\"outline: none;text-decoration: none;-ms-interpolation-mode: bicubic;width: auto;max-width: 100%;display: block;margin: 0 auto;\\\"> </center> </td> </tr> <tr style=\\\"padding: 0;vertical-align: top;text-align: left;\\\"> <td style=\\\"padding: 20px 60px 0;word-break: break-word;-webkit-hyphens: auto;-moz-hyphens: auto;hyphens: auto;vertical-align: top;text-align: left;font-family: &quot;Helvetica&quot;, &quot;Arial&quot;, sans-serif;margin: 0;line-height: 1.3;border-collapse: collapse !important;\\\"> <h1 class=\\\"center\\\" style=\\\"font-family: &quot;Helvetica&quot;, &quot;Arial&quot;, sans-serif;margin: 0;line-height: 1.3;font-weight: bold;color: #333;font-size: 26px;word-break: normal;text-align: center;\\\">Welcome to Mail API Test, {{firstName}}!</h1> </td> </tr> <tr style=\\\"padding: 0;vertical-align: top;text-align: left;\\\"> <td style=\\\"padding: 20px 60px 0;word-break: break-word;-webkit-hyphens: auto;-moz-hyphens: auto;hyphens: auto;vertical-align: top;text-align: left;font-family: &quot;Helvetica&quot;, &quot;Arial&quot;, sans-serif;margin: 0;line-height: 1.3;border-collapse: collapse !important;\\\"> <p style=\\\"margin: 0;margin-bottom: 10px;font-family: &quot;Helvetica&quot;, &quot;Arial&quot;, sans-serif;line-height: 1.3;\\\">This is an email message template to test mail api.</p> <p style=\\\"margin: 0;margin-bottom: 10px;font-family: &quot;Helvetica&quot;, &quot;Arial&quot;, sans-serif;line-height: 1.3;\\\">We're glad you recieved this email, The Mail API Team</p> <br> </td> </tr> <tr style=\\\"padding: 0;vertical-align: top;text-align: left;\\\"> <td style=\\\"padding: 20px 60px 20px;word-break: break-word;-webkit-hyphens: auto;-moz-hyphens: auto;hyphens: auto;vertical-align: top;text-align: left;font-family: &quot;Helvetica&quot;, &quot;Arial&quot;, sans-serif;margin: 0;line-height: 1.3;border-collapse: collapse !important;\\\"> <span style=\\\"font-size:11px;\\\">If you received this email by mistake, simply delete it.</span> </td> <td class=\\\"expander\\\" style=\\\"word-break: break-word;-webkit-hyphens: auto;-moz-hyphens: auto;hyphens: auto;padding: 0 !important;vertical-align: top;text-align: left;font-family: &quot;Helvetica&quot;, &quot;Arial&quot;, sans-serif;margin: 0;line-height: 1.3;visibility: hidden;width: 0px;border-collapse: collapse !important;\\\"></td> </tr> </table> </td> </tr> </table> </td> </tr> </table> </center> </td> </tr> </table><!-- updated template --></body></html>\"\n}"
		},
		{
			"id": "dade5cdf-1e2e-814b-5dd9-21ad6fd3ca0b",
			"headers": "lp-security-token: {{sec_Token}}\nContent-Type: application/json\n",
			"url": "{{stargate}}/mail/v1/messages",
			"preRequestScript": null,
			"pathVariables": {},
			"method": "POST",
			"data": [],
			"dataMode": "raw",
			"version": 2,
			"tests": "tests[\"Email Accepted\"] = responseCode.code === 202;",
			"currentHelper": "normal",
			"helperAttributes": {},
			"time": 1463427659613,
			"name": "Mail API: Send Email Message",
			"description": "This request creates and sends a new message.",
			"collectionId": "c8a5c914-72ae-1c2d-6a86-ed1e24c6ce18",
			"responses": [],
			"folder": "2390a835-d67d-372d-b00f-0e97ca3c810e",
			"rawModeData": "{\n    \"sender\": {\n        \"destinationType\": \"to\",\n        \"email\": \"test@ave81.com\",\n        \"name\": \"Mail API Test Automation\"\n    },\n    \"recipients\": [{\n        \"destinationType\": \"to\",\n        \"email\": \"erny+test+mail@ave81.com\",\n        \"name\": \"Recipient Mail Test\"\n    },\n    {\n        \"destinationType\": \"cc\",\n        \"email\": \"erny+test+mail2@ave81.com\",\n        \"name\": \"Recipient Mail Test 2\"\n    }\n    ],\n    \"sourceService\": \"integration\",\n    \"html\": \"\",\n    \"text\": \"This is an email body message for test.\",\n    \"replyTo\": {\n        \"destinationType\": \"to\",\n        \"email\": \"no-reply@ave81.com\",\n        \"name\": \"No reply\"\n    },\n    \"subject\": \"Test Mail API Message\"\n}"
		},
		{
			"id": "e6853bbb-6e64-7b28-eb54-2d0dcfcaf10a",
			"headers": "lp-security-token: {{sec_Token}}\n//Content-Type: \n",
			"url": "{{stargate}}/mail/v1/messages",
			"preRequestScript": null,
			"pathVariables": {},
			"method": "POST",
			"data": [],
			"dataMode": "raw",
			"version": 2,
			"tests": "tests[\"Caught Content-Type request error.\"] = responseCode.code === 400;\n\nvar data = JSON.parse(responseBody);\n\nif(responseCode.code === 400){\n    tests[\"`missing Content-Type header` message should be returned.\"] = data._status.errors[0].message === \"missing Content-Type header\";\n}else{\n    tests[\"Error:\" + data._status.errors[0].message] = false;\n}",
			"currentHelper": "normal",
			"helperAttributes": {},
			"time": 1464034700168,
			"name": "Mail API: Missing Content-Type header",
			"description": "This request does not include Content-Type on the header. Should expect to recieve a response body with an error message.",
			"collectionId": "c8a5c914-72ae-1c2d-6a86-ed1e24c6ce18",
			"responses": [],
			"rawModeData": ""
		},
		{
			"id": "ed29087f-6e27-ce9a-821e-b1acc9a0cbed",
			"headers": "Content-Type: application/json\n",
			"url": "{{stargate}}/mail/v1/messages",
			"preRequestScript": null,
			"pathVariables": {},
			"method": "POST",
			"data": [],
			"dataMode": "raw",
			"version": 2,
			"tests": "tests[\"Mail should not be sent.\"] = responseCode.code === 401;\n\nvar data = JSON.parse(responseBody);\n\nif(responseCode.code === 401){\n    tests[\"`Authorization failed.` message should be returned.\"] = data._status.errors[0].message === \"Authorization failed.\";\n}else{\n    tests[\"Error:\" + data._status.errors[0].message] = false;\n}",
			"currentHelper": "normal",
			"helperAttributes": {},
			"time": 1464034746779,
			"name": "Mail API: Unauth - Send Email Message",
			"description": "While not logged-in, this request creates and sends a new message. Expects a `Authorization failed.` message on the response body.",
			"collectionId": "c8a5c914-72ae-1c2d-6a86-ed1e24c6ce18",
			"responses": [],
			"rawModeData": "{\n    \"sender\": {\n        \"destinationType\": \"to\",\n        \"email\": \"test@ave81.com\",\n        \"name\": \"Mail API Test Automation\"\n    },\n    \"recipients\": [{\n        \"destinationType\": \"to\",\n        \"email\": \"erny+test+mail@ave81.com\",\n        \"name\": \"Recipient Mail Test\"\n    },\n    {\n        \"destinationType\": \"cc\",\n        \"email\": \"erny+test+mail2@ave81.com\",\n        \"name\": \"Recipient Mail Test 2\"\n    }\n    ],\n    \"sourceService\": \"integration\",\n    \"html\": \"\",\n    \"text\": \"This is an email body message for test.\",\n    \"replyTo\": {\n        \"destinationType\": \"to\",\n        \"email\": \"no-reply@ave81.com\",\n        \"name\": \"No reply\"\n    },\n    \"subject\": \"Test Mail API Message\"\n}"
		},
		{
			"id": "f1e28cb0-270e-9d3a-95c6-07ac768c9c2c",
			"headers": "Content-Type: application/json\n",
			"url": "{{stargate}}/mail/v1/templates",
			"preRequestScript": null,
			"pathVariables": {},
			"method": "POST",
			"data": [],
			"dataMode": "raw",
			"version": 2,
			"tests": "tests[\"Mail should not be sent.\"] = responseCode.code === 401;\n\nvar data = JSON.parse(responseBody);\n\nif(responseCode.code === 401){\n    tests[\"`Authorization failed.` message should be returned.\"] = data._status.errors[0].message === \"Authorization failed.\";\n}else{\n    tests[\"Error:\" + data._status.errors[0].message] = false;\n}",
			"currentHelper": "normal",
			"helperAttributes": {},
			"time": 1464034901205,
			"name": "Mail API: Unauth - Create New Template",
			"description": "While not logged-in, this request tries to create the a templates and expects an `Authorization failed.` message on the response body.",
			"collectionId": "c8a5c914-72ae-1c2d-6a86-ed1e24c6ce18",
			"responses": [],
			"rawModeData": "{\n    \"sender\": {\n        \"destinationType\": \"to\",\n        \"email\": \"test@ave81.com\",\n        \"name\": \"Mail API Test Automation\"\n    },\n    \"recipients\": [{\n        \"destinationType\": \"to\",\n        \"email\": \"erny+test+mail@ave81.com\",\n        \"name\": \"Recipient Mail Test\"\n    },\n    {\n        \"destinationType\": \"cc\",\n        \"email\": \"erny+test+mail2@ave81.com\",\n        \"name\": \"Recipient Mail Test 2\"\n    }\n    ],\n    \"sourceService\": \"integration\",\n    \"html\": \"\",\n    \"text\": \"This is an email body message for test.\",\n    \"replyTo\": {\n        \"destinationType\": \"to\",\n        \"email\": \"no-reply@ave81.com\",\n        \"name\": \"No reply\"\n    },\n    \"subject\": \"Test Mail API Message\"\n}"
		},
		{
			"id": "f1eb5e76-8a23-1eac-84fe-9011a36ff0c3",
			"headers": "lp-security-token: {{sec_Token}}\nContent-Type: application/json\n",
			"url": "{{stargate}}/mail/v1/templates",
			"preRequestScript": null,
			"pathVariables": {},
			"method": "POST",
			"data": [],
			"dataMode": "raw",
			"version": 2,
			"tests": "tests[\"Caught JSON request error.\"] = responseCode.code === 400;\n\nvar data = JSON.parse(responseBody);\n\nif(responseCode.code === 400){\ntests[\"`failed to parse JSON request` message should be returned.\"] = data._status.errors[0].message === \"failed to parse JSON request\";\n}else{\n    tests[\"Error:\" + data._status.errors[0].message] = false;\n}",
			"currentHelper": "normal",
			"helperAttributes": {},
			"time": 1464035222938,
			"name": "Mail API: Failed to parse JSON request",
			"description": "This request sends an invalid json object.",
			"collectionId": "c8a5c914-72ae-1c2d-6a86-ed1e24c6ce18",
			"responses": [],
			"rawModeData": "{\n    \"sourceText\": \"This is an email template.\"\n    \"description\": \"This is a message email template for test.\",\n    \"name\": \"Email Template Test\",\n    \"templateId\": \"{{email_template_id}}\",\n    \"sourceHtml\": \"<!DOCTYPE html PUBLIC \\\"-//W3C//DTD XHTML 1.0 Strict//EN\\\" \\\"http://www.w3.org/TR/xhtml1/DTD/xhtml1-strict.dtd\\\"><html xmlns=\\\"http://www.w3.org/1999/xhtml\\\"><head> <meta http-equiv=\\\"Content-Type\\\" content=\\\"text/html; charset=utf-8\\\"> <meta name=\\\"viewport\\\" content=\\\"width=device-width\\\"></head><body style=\\\"min-width: 100%;-webkit-text-size-adjust: 100%;-ms-text-size-adjust: 100%;margin: 0;padding: 0;background-color: #2CC17B;font-family: &quot;Helvetica&quot;, &quot;Arial&quot;, sans-serif;line-height: 1.3;width: 100% !important;\\\"> <table class=\\\"body\\\" style=\\\"border-spacing: 0;border-collapse: collapse;padding: 0;vertical-align: top;text-align: left;height: 100%;width: 100%;font-family: &quot;Helvetica&quot;, &quot;Arial&quot;, sans-serif;margin: 0;line-height: 1.3;\\\"> <tr style=\\\"padding: 0;vertical-align: top;text-align: left;\\\"> <td class=\\\"center\\\" align=\\\"center\\\" valign=\\\"top\\\" style=\\\"word-break: break-word;-webkit-hyphens: auto;-moz-hyphens: auto;hyphens: auto;padding: 0;vertical-align: top;text-align: center;font-family: &quot;Helvetica&quot;, &quot;Arial&quot;, sans-serif;margin: 0;line-height: 1.3;border-collapse: collapse !important;\\\"> <center> <table class=\\\"row header\\\" style=\\\"border-spacing: 0;border-collapse: collapse;padding: 0px;vertical-align: top;text-align: left;background: #2CC17B;width: 100%;position: relative;\\\"> <tr style=\\\"padding: 0;vertical-align: top;text-align: left;\\\"> <td class=\\\"center\\\" align=\\\"center\\\" style=\\\"word-break: break-word;-webkit-hyphens: auto;-moz-hyphens: auto;hyphens: auto;padding: 0;vertical-align: top;text-align: center;font-family: &quot;Helvetica&quot;, &quot;Arial&quot;, sans-serif;margin: 0;line-height: 1.3;border-collapse: collapse !important;\\\"> <center> <table class=\\\"container\\\" style=\\\"border-spacing: 0;border-collapse: collapse;padding: 0;vertical-align: top;text-align: inherit;width: 580px;margin: 0 auto;\\\"> <tr style=\\\"padding: 0;vertical-align: top;text-align: left;\\\"> <td class=\\\"wrapper last\\\" style=\\\"word-break: break-word;-webkit-hyphens: auto;-moz-hyphens: auto;hyphens: auto;padding: 10px 20px 0px 0px;vertical-align: top;text-align: left;font-family: &quot;Helvetica&quot;, &quot;Arial&quot;, sans-serif;margin: 0;line-height: 1.3;position: relative;border-collapse: collapse !important;\\\"> <table class=\\\"twelve columns\\\" style=\\\"border-spacing: 0;border-collapse: collapse;padding: 0;vertical-align: top;text-align: left;margin: 0 auto;\\\"> <tr style=\\\"padding: 0;vertical-align: top;text-align: left;\\\"><td class=\\\"expander\\\" style=\\\"word-break: break-word;-webkit-hyphens: auto;-moz-hyphens: auto;hyphens: auto;padding: 0 !important;vertical-align: top;text-align: left;font-family: &quot;Helvetica&quot;, &quot;Arial&quot;, sans-serif;margin: 0;line-height: 1.3;visibility: hidden;width: 0px;border-collapse: collapse !important;\\\"></td> </tr> </table> </td> </tr> </table> </center> </td> </tr> </table> <table class=\\\"container\\\" style=\\\"border-spacing: 0;border-collapse: collapse;padding: 0;vertical-align: top;text-align: inherit;width: 580px;margin: 0 auto;\\\"> <tr style=\\\"padding: 0;vertical-align: top;text-align: left;\\\"> <td style=\\\"word-break: break-word;-webkit-hyphens: auto;-moz-hyphens: auto;hyphens: auto;padding: 0;vertical-align: top;text-align: left;font-family: &quot;Helvetica&quot;, &quot;Arial&quot;, sans-serif;margin: 0;line-height: 1.3;border-collapse: collapse !important;\\\"> <table class=\\\"row\\\" style=\\\"border-spacing: 0;border-collapse: collapse;padding: 0px;vertical-align: top;text-align: left;width: 100%;position: relative;display: block;\\\"> <tr style=\\\"padding: 0;vertical-align: top;text-align: left;\\\"> <td class=\\\"wrapper last\\\" style=\\\"word-break: break-word;-webkit-hyphens: auto;-moz-hyphens: auto;hyphens: auto;padding: 10px 20px 0px 0px;vertical-align: top;text-align: left;font-family: &quot;Helvetica&quot;, &quot;Arial&quot;, sans-serif;margin: 0;line-height: 1.3;position: relative;border-collapse: collapse !important;\\\"> <table class=\\\"body-content twelve columns\\\" style=\\\"border-spacing: 0;border-collapse: collapse;padding: 0;vertical-align: top;text-align: left;background-color: white;border-radius: 5px;box-shadow: 0 0 10px #18B56B;margin: 0 auto;\\\"> <tr style=\\\"padding: 0;vertical-align: top;text-align: left;\\\"> <td align=\\\"center\\\" style=\\\"padding: 40px 0 0 0;word-break: break-word;-webkit-hyphens: auto;-moz-hyphens: auto;hyphens: auto;vertical-align: top;text-align: left;font-family: &quot;Helvetica&quot;, &quot;Arial&quot;, sans-serif;margin: 0;line-height: 1.3;border-collapse: collapse !important;\\\"> <center><img src=\\\"https://storage.googleapis.com/lp-assets-test/twoqaUn8oJaoNSH6MUbdLT%2FSwaCEb6gFdLuYTbaiD9jhh\\\" height=\\\"120\\\" style=\\\"outline: none;text-decoration: none;-ms-interpolation-mode: bicubic;width: auto;max-width: 100%;display: block;margin: 0 auto;\\\"> </center> </td> </tr> <tr style=\\\"padding: 0;vertical-align: top;text-align: left;\\\"> <td style=\\\"padding: 20px 60px 0;word-break: break-word;-webkit-hyphens: auto;-moz-hyphens: auto;hyphens: auto;vertical-align: top;text-align: left;font-family: &quot;Helvetica&quot;, &quot;Arial&quot;, sans-serif;margin: 0;line-height: 1.3;border-collapse: collapse !important;\\\"> <h1 class=\\\"center\\\" style=\\\"font-family: &quot;Helvetica&quot;, &quot;Arial&quot;, sans-serif;margin: 0;line-height: 1.3;font-weight: bold;color: #333;font-size: 26px;word-break: normal;text-align: center;\\\">Welcome to Mail API Test, {{firstName}}!</h1> </td> </tr> <tr style=\\\"padding: 0;vertical-align: top;text-align: left;\\\"> <td style=\\\"padding: 20px 60px 0;word-break: break-word;-webkit-hyphens: auto;-moz-hyphens: auto;hyphens: auto;vertical-align: top;text-align: left;font-family: &quot;Helvetica&quot;, &quot;Arial&quot;, sans-serif;margin: 0;line-height: 1.3;border-collapse: collapse !important;\\\"> <p style=\\\"margin: 0;margin-bottom: 10px;font-family: &quot;Helvetica&quot;, &quot;Arial&quot;, sans-serif;line-height: 1.3;\\\">This is an email message template to test mail api.</p> <p style=\\\"margin: 0;margin-bottom: 10px;font-family: &quot;Helvetica&quot;, &quot;Arial&quot;, sans-serif;line-height: 1.3;\\\">We're glad you recieved this email, The Mail API Team</p> <br> </td> </tr> <tr style=\\\"padding: 0;vertical-align: top;text-align: left;\\\"> <td style=\\\"padding: 20px 60px 20px;word-break: break-word;-webkit-hyphens: auto;-moz-hyphens: auto;hyphens: auto;vertical-align: top;text-align: left;font-family: &quot;Helvetica&quot;, &quot;Arial&quot;, sans-serif;margin: 0;line-height: 1.3;border-collapse: collapse !important;\\\"> <span style=\\\"font-size:11px;\\\">If you received this email by mistake, simply delete it.</span> </td> <td class=\\\"expander\\\" style=\\\"word-break: break-word;-webkit-hyphens: auto;-moz-hyphens: auto;hyphens: auto;padding: 0 !important;vertical-align: top;text-align: left;font-family: &quot;Helvetica&quot;, &quot;Arial&quot;, sans-serif;margin: 0;line-height: 1.3;visibility: hidden;width: 0px;border-collapse: collapse !important;\\\"></td> </tr> </table> </td> </tr> </table> </td> </tr> </table> </center> </td> </tr> </table></body></html>\"\n}"
		},
		{
			"id": "f805d0af-024e-3d23-65c0-c52aa59a88f5",
			"headers": "lp-security-token: {{sec_Token}}\nContent-Type: application/json\n",
			"url": "{{stargate}}/mail/v1/templates",
			"preRequestScript": "var randomInt = Math.floor(Math.random() * 10000);\npostman.setEnvironmentVariable(\"email_template_id\", \"ETID-\" + randomInt);",
			"pathVariables": {},
			"method": "POST",
			"data": [],
			"dataMode": "raw",
			"version": 2,
			"tests": "tests[\"Templates should be retrieved\"] = responseCode.code === 200;\n\nvar data = JSON.parse(responseBody);\n\nif(responseCode.code === 200){\n    postman.setEnvironmentVariable(\"template_id\", data._meta.id);\n    \n    tests[\"Response body contains meta.\"] =  responseBody.has(\"meta\");\n    tests[\"Id should be \" + environment.email_template_id + \".\"] = data._meta.id === environment.email_template_id;\n    tests[\"Description should not be null.\"] = data.description !== null;\n    tests[\"Source text should not be null.\"] = data.sourceText !== null;\n    tests[\"Name should be `Email Template Test.`\"] = data.name === \"Email Template Test\";\n}else{\n    tests[\"Error:\" + data._status.errors[0].message] = false;\n}",
			"currentHelper": "normal",
			"helperAttributes": {},
			"time": 1464035913702,
			"name": "Mail API: Create New Mail Template",
			"description": "This request creates a new email template.",
			"collectionId": "c8a5c914-72ae-1c2d-6a86-ed1e24c6ce18",
			"responses": [],
			"rawModeData": "{\n    \"sourceText\": \"This is an email template.\",\n    \"description\": \"This is a message email template for test.\",\n    \"name\": \"Email Template Test\",\n    \"templateId\": \"{{email_template_id}}\",\n    \"sourceHtml\": \"<!DOCTYPE html PUBLIC \\\"-//W3C//DTD XHTML 1.0 Strict//EN\\\" \\\"http://www.w3.org/TR/xhtml1/DTD/xhtml1-strict.dtd\\\"><html xmlns=\\\"http://www.w3.org/1999/xhtml\\\"><head> <meta http-equiv=\\\"Content-Type\\\" content=\\\"text/html; charset=utf-8\\\"> <meta name=\\\"viewport\\\" content=\\\"width=device-width\\\"></head><body style=\\\"min-width: 100%;-webkit-text-size-adjust: 100%;-ms-text-size-adjust: 100%;margin: 0;padding: 0;background-color: #2CC17B;font-family: &quot;Helvetica&quot;, &quot;Arial&quot;, sans-serif;line-height: 1.3;width: 100% !important;\\\"> <table class=\\\"body\\\" style=\\\"border-spacing: 0;border-collapse: collapse;padding: 0;vertical-align: top;text-align: left;height: 100%;width: 100%;font-family: &quot;Helvetica&quot;, &quot;Arial&quot;, sans-serif;margin: 0;line-height: 1.3;\\\"> <tr style=\\\"padding: 0;vertical-align: top;text-align: left;\\\"> <td class=\\\"center\\\" align=\\\"center\\\" valign=\\\"top\\\" style=\\\"word-break: break-word;-webkit-hyphens: auto;-moz-hyphens: auto;hyphens: auto;padding: 0;vertical-align: top;text-align: center;font-family: &quot;Helvetica&quot;, &quot;Arial&quot;, sans-serif;margin: 0;line-height: 1.3;border-collapse: collapse !important;\\\"> <center> <table class=\\\"row header\\\" style=\\\"border-spacing: 0;border-collapse: collapse;padding: 0px;vertical-align: top;text-align: left;background: #2CC17B;width: 100%;position: relative;\\\"> <tr style=\\\"padding: 0;vertical-align: top;text-align: left;\\\"> <td class=\\\"center\\\" align=\\\"center\\\" style=\\\"word-break: break-word;-webkit-hyphens: auto;-moz-hyphens: auto;hyphens: auto;padding: 0;vertical-align: top;text-align: center;font-family: &quot;Helvetica&quot;, &quot;Arial&quot;, sans-serif;margin: 0;line-height: 1.3;border-collapse: collapse !important;\\\"> <center> <table class=\\\"container\\\" style=\\\"border-spacing: 0;border-collapse: collapse;padding: 0;vertical-align: top;text-align: inherit;width: 580px;margin: 0 auto;\\\"> <tr style=\\\"padding: 0;vertical-align: top;text-align: left;\\\"> <td class=\\\"wrapper last\\\" style=\\\"word-break: break-word;-webkit-hyphens: auto;-moz-hyphens: auto;hyphens: auto;padding: 10px 20px 0px 0px;vertical-align: top;text-align: left;font-family: &quot;Helvetica&quot;, &quot;Arial&quot;, sans-serif;margin: 0;line-height: 1.3;position: relative;border-collapse: collapse !important;\\\"> <table class=\\\"twelve columns\\\" style=\\\"border-spacing: 0;border-collapse: collapse;padding: 0;vertical-align: top;text-align: left;margin: 0 auto;\\\"> <tr style=\\\"padding: 0;vertical-align: top;text-align: left;\\\"><td class=\\\"expander\\\" style=\\\"word-break: break-word;-webkit-hyphens: auto;-moz-hyphens: auto;hyphens: auto;padding: 0 !important;vertical-align: top;text-align: left;font-family: &quot;Helvetica&quot;, &quot;Arial&quot;, sans-serif;margin: 0;line-height: 1.3;visibility: hidden;width: 0px;border-collapse: collapse !important;\\\"></td> </tr> </table> </td> </tr> </table> </center> </td> </tr> </table> <table class=\\\"container\\\" style=\\\"border-spacing: 0;border-collapse: collapse;padding: 0;vertical-align: top;text-align: inherit;width: 580px;margin: 0 auto;\\\"> <tr style=\\\"padding: 0;vertical-align: top;text-align: left;\\\"> <td style=\\\"word-break: break-word;-webkit-hyphens: auto;-moz-hyphens: auto;hyphens: auto;padding: 0;vertical-align: top;text-align: left;font-family: &quot;Helvetica&quot;, &quot;Arial&quot;, sans-serif;margin: 0;line-height: 1.3;border-collapse: collapse !important;\\\"> <table class=\\\"row\\\" style=\\\"border-spacing: 0;border-collapse: collapse;padding: 0px;vertical-align: top;text-align: left;width: 100%;position: relative;display: block;\\\"> <tr style=\\\"padding: 0;vertical-align: top;text-align: left;\\\"> <td class=\\\"wrapper last\\\" style=\\\"word-break: break-word;-webkit-hyphens: auto;-moz-hyphens: auto;hyphens: auto;padding: 10px 20px 0px 0px;vertical-align: top;text-align: left;font-family: &quot;Helvetica&quot;, &quot;Arial&quot;, sans-serif;margin: 0;line-height: 1.3;position: relative;border-collapse: collapse !important;\\\"> <table class=\\\"body-content twelve columns\\\" style=\\\"border-spacing: 0;border-collapse: collapse;padding: 0;vertical-align: top;text-align: left;background-color: white;border-radius: 5px;box-shadow: 0 0 10px #18B56B;margin: 0 auto;\\\"> <tr style=\\\"padding: 0;vertical-align: top;text-align: left;\\\"> <td align=\\\"center\\\" style=\\\"padding: 40px 0 0 0;word-break: break-word;-webkit-hyphens: auto;-moz-hyphens: auto;hyphens: auto;vertical-align: top;text-align: left;font-family: &quot;Helvetica&quot;, &quot;Arial&quot;, sans-serif;margin: 0;line-height: 1.3;border-collapse: collapse !important;\\\"> <center><img src=\\\"https://storage.googleapis.com/lp-assets-test/twoqaUn8oJaoNSH6MUbdLT%2FSwaCEb6gFdLuYTbaiD9jhh\\\" height=\\\"120\\\" style=\\\"outline: none;text-decoration: none;-ms-interpolation-mode: bicubic;width: auto;max-width: 100%;display: block;margin: 0 auto;\\\"> </center> </td> </tr> <tr style=\\\"padding: 0;vertical-align: top;text-align: left;\\\"> <td style=\\\"padding: 20px 60px 0;word-break: break-word;-webkit-hyphens: auto;-moz-hyphens: auto;hyphens: auto;vertical-align: top;text-align: left;font-family: &quot;Helvetica&quot;, &quot;Arial&quot;, sans-serif;margin: 0;line-height: 1.3;border-collapse: collapse !important;\\\"> <h1 class=\\\"center\\\" style=\\\"font-family: &quot;Helvetica&quot;, &quot;Arial&quot;, sans-serif;margin: 0;line-height: 1.3;font-weight: bold;color: #333;font-size: 26px;word-break: normal;text-align: center;\\\">Welcome to Mail API Test, {{firstName}}!</h1> </td> </tr> <tr style=\\\"padding: 0;vertical-align: top;text-align: left;\\\"> <td style=\\\"padding: 20px 60px 0;word-break: break-word;-webkit-hyphens: auto;-moz-hyphens: auto;hyphens: auto;vertical-align: top;text-align: left;font-family: &quot;Helvetica&quot;, &quot;Arial&quot;, sans-serif;margin: 0;line-height: 1.3;border-collapse: collapse !important;\\\"> <p style=\\\"margin: 0;margin-bottom: 10px;font-family: &quot;Helvetica&quot;, &quot;Arial&quot;, sans-serif;line-height: 1.3;\\\">This is an email message template to test mail api.</p> <p style=\\\"margin: 0;margin-bottom: 10px;font-family: &quot;Helvetica&quot;, &quot;Arial&quot;, sans-serif;line-height: 1.3;\\\">We're glad you recieved this email, The Mail API Team</p> <br> </td> </tr> <tr style=\\\"padding: 0;vertical-align: top;text-align: left;\\\"> <td style=\\\"padding: 20px 60px 20px;word-break: break-word;-webkit-hyphens: auto;-moz-hyphens: auto;hyphens: auto;vertical-align: top;text-align: left;font-family: &quot;Helvetica&quot;, &quot;Arial&quot;, sans-serif;margin: 0;line-height: 1.3;border-collapse: collapse !important;\\\"> <span style=\\\"font-size:11px;\\\">If you received this email by mistake, simply delete it.</span> </td> <td class=\\\"expander\\\" style=\\\"word-break: break-word;-webkit-hyphens: auto;-moz-hyphens: auto;hyphens: auto;padding: 0 !important;vertical-align: top;text-align: left;font-family: &quot;Helvetica&quot;, &quot;Arial&quot;, sans-serif;margin: 0;line-height: 1.3;visibility: hidden;width: 0px;border-collapse: collapse !important;\\\"></td> </tr> </table> </td> </tr> </table> </td> </tr> </table> </center> </td> </tr> </table></body></html>\"\n}"
		}
	]
}